00:00:04.728549 VirtualBox GUI VM Selector Window 6.1.28 r147628 linux.amd64 (Oct 20 2021 21:54:22) release log
00:00:04.728553 Log opened 2021-10-23T07:50:43.513675000Z
00:00:04.728555 Build Type: release
00:00:04.728558 OS Product: Linux
00:00:04.728561 OS Release: 5.14.14-arch1-1
00:00:04.728563 OS Version: #1 SMP PREEMPT Wed, 20 Oct 2021 21:35:18 +0000
00:00:04.728593 DMI Product Name: 20JNS10501
00:00:04.728609 DMI Product Version: ThinkPad T470 W10DG
00:00:04.728616 Firmware type: UEFI
00:00:04.729675 Secure Boot: Disabled
00:00:04.729756 Host RAM: 15747MB (15.3GB) total, 15230MB (14.8GB) available
00:00:04.729764 Executable: /usr/lib/virtualbox/VirtualBox
00:00:04.729765 Process ID: 37755
00:00:04.729767 Package type: LINUX_64BITS_GENERIC (OSE)
00:00:04.729814 Qt version: 5.15.2
00:00:04.770054 GUI: UIMediumEnumerator: Medium-enumeration started...
00:00:05.378669 GUI: UIDesktopWidgetWatchdog::sltHandleHostScreenAvailableGeometryCalculated: Screen 0 work area is actually resized to: 3x27 x 1906x1042
00:00:05.391517 GUI: UIMediumEnumerator: Medium-enumeration finished!
00:00:30.434911 GUI: UIMediumEnumerator: Medium-enumeration finished!
00:00:46.576296 GUI: UIMediumEnumerator: Medium-enumeration finished!
