00:00:01.758364 VirtualBox GUI VM Selector Window 6.1.28 r147628 linux.amd64 (Oct 20 2021 21:54:22) release log
00:00:01.758366 Log opened 2021-10-23T12:24:06.977611000Z
00:00:01.758366 Build Type: release
00:00:01.758368 OS Product: Linux
00:00:01.758369 OS Release: 5.14.14-arch1-1
00:00:01.758370 OS Version: #1 SMP PREEMPT Wed, 20 Oct 2021 21:35:18 +0000
00:00:01.758384 DMI Product Name: 20JNS10501
00:00:01.758390 DMI Product Version: ThinkPad T470 W10DG
00:00:01.758393 Firmware type: UEFI
00:00:01.759093 Secure Boot: Disabled
00:00:01.759123 Host RAM: 15747MB (15.3GB) total, 15199MB (14.8GB) available
00:00:01.759126 Executable: /usr/lib/virtualbox/VirtualBox
00:00:01.759126 Process ID: 192796
00:00:01.759127 Package type: LINUX_64BITS_GENERIC (OSE)
00:00:01.759148 Qt version: 5.15.2
00:00:01.776728 GUI: UIMediumEnumerator: Medium-enumeration started...
00:00:02.210365 GUI: UIDesktopWidgetWatchdog::sltHandleHostScreenAvailableGeometryCalculated: Screen 0 work area is actually resized to: 3x27 x 1906x1042
00:00:02.219327 GUI: UIMediumEnumerator: Medium-enumeration finished!
00:01:24.985365 GUI: UIMediumEnumerator: Medium-enumeration finished!
