00:00:00.186746 VirtualBox GUI VM Selector Window 6.1.28 r147628 linux.amd64 (Oct 20 2021 21:54:22) release log
00:00:00.186748 Log opened 2021-10-23T14:39:36.085611000Z
00:00:00.186749 Build Type: release
00:00:00.186752 OS Product: Linux
00:00:00.186753 OS Release: 5.14.14-arch1-1
00:00:00.186755 OS Version: #1 SMP PREEMPT Wed, 20 Oct 2021 21:35:18 +0000
00:00:00.186774 DMI Product Name: 20JNS10501
00:00:00.186783 DMI Product Version: ThinkPad T470 W10DG
00:00:00.186788 Firmware type: UEFI
00:00:00.187596 Secure Boot: Disabled
00:00:00.187637 Host RAM: 15747MB (15.3GB) total, 15264MB (14.9GB) available
00:00:00.187641 Executable: /usr/lib/virtualbox/VirtualBox
00:00:00.187642 Process ID: 21936
00:00:00.187642 Package type: LINUX_64BITS_GENERIC (OSE)
00:00:00.187673 Qt version: 5.15.2
00:00:00.218801 GUI: UIMediumEnumerator: Medium-enumeration started...
00:00:00.800875 GUI: UIDesktopWidgetWatchdog::sltHandleHostScreenAvailableGeometryCalculated: Screen 0 work area is actually resized to: 3x27 x 1906x1042
00:00:00.813122 GUI: UIMediumEnumerator: Medium-enumeration finished!
