00:00:00.594234 VirtualBox GUI VM Selector Window 6.1.28 r147628 linux.amd64 (Oct 20 2021 21:54:22) release log
00:00:00.594236 Log opened 2021-10-30T09:38:36.030518000Z
00:00:00.594237 Build Type: release
00:00:00.594239 OS Product: Linux
00:00:00.594240 OS Release: 5.14.14-arch1-1
00:00:00.594241 OS Version: #1 SMP PREEMPT Wed, 20 Oct 2021 21:35:18 +0000
00:00:00.594257 DMI Product Name: 20JNS10501
00:00:00.594264 DMI Product Version: ThinkPad T470 W10DG
00:00:00.594268 Firmware type: UEFI
00:00:00.595001 Secure Boot: Disabled
00:00:00.595042 Host RAM: 15747MB (15.3GB) total, 14465MB (14.1GB) available
00:00:00.595045 Executable: /usr/lib/virtualbox/VirtualBox
00:00:00.595046 Process ID: 2750
00:00:00.595046 Package type: LINUX_64BITS_GENERIC (OSE)
00:00:00.595070 Qt version: 5.15.2
00:00:00.642709 GUI: UIMediumEnumerator: Medium-enumeration started...
00:00:01.430740 GUI: UIDesktopWidgetWatchdog::sltHandleHostScreenAvailableGeometryCalculated: Screen 0 work area is actually resized to: 0x0 x 1920x1040
00:00:01.512628 GUI: UIMediumEnumerator: Medium-enumeration finished!
00:01:11.540826 GUI: UIMediumEnumerator: Medium with key={{3c6522ba-960f-4f04-a669-6f636c57e400}} created
00:01:11.678755 GUI: UIMediumEnumerator: Medium-enumeration finished!
00:02:11.571481 GUI: UIMediumEnumerator: Medium-enumeration finished!
00:02:30.593104 GUI: UIMediumEnumerator: Medium-enumeration finished!
00:02:33.940682 GUI: UIMediumEnumerator: Medium-enumeration finished!
00:02:33.957515 GUI: UIMediumEnumerator: Medium-enumeration finished!
00:11:40.575209 GUI: UIMediumEnumerator: Medium-enumeration finished!
00:11:41.234163 GUI: UIMediumEnumerator: Medium-enumeration finished!
00:11:41.273475 GUI: UIMediumEnumerator: Medium-enumeration finished!
00:12:34.061646 GUI: UIMediumEnumerator: Medium with key={{d8a0b0c4-9c91-4377-9f7a-f65bc6ecbd61}} created
00:12:34.183318 GUI: UIMediumEnumerator: Medium-enumeration finished!
00:13:38.805375 GUI: UIMediumEnumerator: Medium-enumeration finished!
00:13:38.820986 GUI: UIMediumEnumerator: Medium-enumeration finished!
00:15:15.024958 GUI: UIMediumEnumerator: Medium-enumeration finished!
00:15:15.707720 GUI: UIMediumEnumerator: Medium-enumeration finished!
00:15:15.730156 GUI: UIMediumEnumerator: Medium-enumeration finished!
00:15:58.450088 GUI: UIMediumEnumerator: Medium with key={{507cc0a5-5e81-4dd6-8306-d94109eb6fb8}} created
00:15:58.621056 GUI: UIMediumEnumerator: Medium-enumeration finished!
00:16:22.824780 GUI: UIMediumEnumerator: Medium-enumeration finished!
00:16:37.810164 GUI: UIMediumEnumerator: Medium-enumeration finished!
00:16:40.668468 GUI: UIMediumEnumerator: Medium-enumeration finished!
00:16:40.715179 GUI: UIMediumEnumerator: Medium-enumeration finished!
