00:00:00.320399 VirtualBox GUI VM Selector Window 6.1.28 r147628 linux.amd64 (Oct 20 2021 21:54:22) release log
00:00:00.320401 Log opened 2021-10-30T10:03:45.170987000Z
00:00:00.320402 Build Type: release
00:00:00.320403 OS Product: Linux
00:00:00.320405 OS Release: 5.14.14-arch1-1
00:00:00.320406 OS Version: #1 SMP PREEMPT Wed, 20 Oct 2021 21:35:18 +0000
00:00:00.320420 DMI Product Name: 20JNS10501
00:00:00.320427 DMI Product Version: ThinkPad T470 W10DG
00:00:00.320430 Firmware type: UEFI
00:00:00.321133 Secure Boot: Disabled
00:00:00.321163 Host RAM: 15747MB (15.3GB) total, 14374MB (14.0GB) available
00:00:00.321166 Executable: /usr/lib/virtualbox/VirtualBox
00:00:00.321166 Process ID: 3878
00:00:00.321167 Package type: LINUX_64BITS_GENERIC (OSE)
00:00:00.321188 Qt version: 5.15.2
00:00:00.354129 GUI: UIMediumEnumerator: Medium-enumeration started...
00:00:00.806277 GUI: UIDesktopWidgetWatchdog::sltHandleHostScreenAvailableGeometryCalculated: Screen 0 work area is actually resized to: 0x0 x 1920x1040
00:00:00.900561 GUI: UIMediumEnumerator: Medium-enumeration finished!
00:00:23.053437 GUI: UIMediumEnumerator: Medium-enumeration finished!
00:00:23.123423 GUI: UIMediumEnumerator: Medium-enumeration finished!
00:01:50.646995 GUI: UIMediumEnumerator: Medium-enumeration finished!
00:02:28.422216 GUI: UIMediumEnumerator: Medium with key={{cdd1c521-b828-4d39-b526-3644a547a817}} created
00:02:28.585432 GUI: UIMediumEnumerator: Medium-enumeration finished!
00:02:48.414916 GUI: UIMediumEnumerator: Medium-enumeration finished!
00:03:06.719391 GUI: UIMediumEnumerator: Medium-enumeration finished!
00:03:09.848667 GUI: UIMediumEnumerator: Medium-enumeration finished!
00:03:09.868682 GUI: UIMediumEnumerator: Medium-enumeration finished!
00:08:39.661251 GUI: UIMediumEnumerator: Medium-enumeration finished!
00:08:40.364735 GUI: UIMediumEnumerator: Medium-enumeration finished!
00:08:40.393518 GUI: UIMediumEnumerator: Medium-enumeration finished!
00:08:52.647233 GUI: UIMediumEnumerator: Medium-enumeration finished!
00:08:52.656928 GUI: UIMediumEnumerator: Medium-enumeration finished!
00:49:23.437047 GUI: UICommon::sltHandleCommitDataRequest: Emergency shutdown initiated
