00:00:00.104320 VirtualBox GUI VM Selector Window 6.1.28 r147628 linux.amd64 (Oct 20 2021 21:54:22) release log
00:00:00.104321 Log opened 2021-10-23T17:19:18.195152000Z
00:00:00.104322 Build Type: release
00:00:00.104324 OS Product: Linux
00:00:00.104325 OS Release: 5.14.14-arch1-1
00:00:00.104326 OS Version: #1 SMP PREEMPT Wed, 20 Oct 2021 21:35:18 +0000
00:00:00.104340 DMI Product Name: 20JNS10501
00:00:00.104347 DMI Product Version: ThinkPad T470 W10DG
00:00:00.104350 Firmware type: UEFI
00:00:00.105020 Secure Boot: Disabled
00:00:00.105050 Host RAM: 15747MB (15.3GB) total, 13578MB (13.2GB) available
00:00:00.105053 Executable: /usr/lib/virtualbox/VirtualBox
00:00:00.105054 Process ID: 115268
00:00:00.105054 Package type: LINUX_64BITS_GENERIC (OSE)
00:00:00.105077 Qt version: 5.15.2
00:00:00.122783 GUI: UIMediumEnumerator: Medium-enumeration started...
00:00:00.572655 GUI: UIDesktopWidgetWatchdog::sltHandleHostScreenAvailableGeometryCalculated: Screen 0 work area is actually resized to: 0x24 x 1920x1056
00:00:00.584252 GUI: UIMediumEnumerator: Medium-enumeration finished!
