00:00:00.215398 VirtualBox GUI VM Selector Window 6.1.28 r147628 linux.amd64 (Oct 20 2021 21:54:22) release log
00:00:00.215401 Log opened 2021-10-23T14:40:31.533313000Z
00:00:00.215402 Build Type: release
00:00:00.215404 OS Product: Linux
00:00:00.215406 OS Release: 5.14.14-arch1-1
00:00:00.215407 OS Version: #1 SMP PREEMPT Wed, 20 Oct 2021 21:35:18 +0000
00:00:00.215430 DMI Product Name: 20JNS10501
00:00:00.215439 DMI Product Version: ThinkPad T470 W10DG
00:00:00.215444 Firmware type: UEFI
00:00:00.216278 Secure Boot: Disabled
00:00:00.216327 Host RAM: 15747MB (15.3GB) total, 15276MB (14.9GB) available
00:00:00.216331 Executable: /usr/lib/virtualbox/VirtualBox
00:00:00.216331 Process ID: 22540
00:00:00.216332 Package type: LINUX_64BITS_GENERIC (OSE)
00:00:00.216374 Qt version: 5.15.2
00:00:00.251791 GUI: UIMediumEnumerator: Medium-enumeration started...
00:00:00.857428 GUI: UIDesktopWidgetWatchdog::sltHandleHostScreenAvailableGeometryCalculated: Screen 0 work area is actually resized to: 3x27 x 1906x1042
00:00:00.872172 GUI: UIMediumEnumerator: Medium-enumeration finished!
