00:00:00.316653 VirtualBox GUI VM Selector Window 6.1.28 r147628 linux.amd64 (Oct 20 2021 21:54:22) release log
00:00:00.316655 Log opened 2021-10-23T17:12:28.373270000Z
00:00:00.316655 Build Type: release
00:00:00.316657 OS Product: Linux
00:00:00.316659 OS Release: 5.14.14-arch1-1
00:00:00.316660 OS Version: #1 SMP PREEMPT Wed, 20 Oct 2021 21:35:18 +0000
00:00:00.316678 DMI Product Name: 20JNS10501
00:00:00.316686 DMI Product Version: ThinkPad T470 W10DG
00:00:00.316690 Firmware type: UEFI
00:00:00.317383 Secure Boot: Disabled
00:00:00.317413 Host RAM: 15747MB (15.3GB) total, 15296MB (14.9GB) available
00:00:00.317416 Executable: /usr/lib/virtualbox/VirtualBox
00:00:00.317416 Process ID: 111227
00:00:00.317417 Package type: LINUX_64BITS_GENERIC (OSE)
00:00:00.317439 Qt version: 5.15.2
00:00:00.334820 GUI: UIMediumEnumerator: Medium-enumeration started...
00:00:00.778497 GUI: UIDesktopWidgetWatchdog::sltHandleHostScreenAvailableGeometryCalculated: Screen 0 work area is actually resized to: 3x27 x 1906x1042
00:00:00.789880 GUI: UIMediumEnumerator: Medium-enumeration finished!
00:03:12.788812 GUI: UIMediumEnumerator: Medium-enumeration finished!
00:03:13.097416 GUI: UIMediumEnumerator: Medium-enumeration finished!
00:03:13.809743 GUI: UIMediumEnumerator: Medium-enumeration finished!
00:03:40.071524 GUI: UIMediumEnumerator: Medium-enumeration finished!
00:03:41.717582 GUI: UIMediumEnumerator: Medium-enumeration finished!
00:03:48.328237 GUI: UIMediumEnumerator: Medium-enumeration finished!
00:03:49.762778 GUI: UIMediumEnumerator: Medium-enumeration finished!
00:04:17.628422 GUI: UIMediumEnumerator: Medium-enumeration finished!
00:04:17.718842 GUI: UIMediumEnumerator: Medium-enumeration finished!
