00:00:00.752707 VirtualBox GUI VM Selector Window 6.1.28 r147628 linux.amd64 (Oct 20 2021 21:54:22) release log
00:00:00.752712 Log opened 2021-10-23T07:35:19.087880000Z
00:00:00.752713 Build Type: release
00:00:00.752718 OS Product: Linux
00:00:00.752721 OS Release: 5.14.14-arch1-1
00:00:00.752724 OS Version: #1 SMP PREEMPT Wed, 20 Oct 2021 21:35:18 +0000
00:00:00.752762 DMI Product Name: 20JNS10501
00:00:00.752780 DMI Product Version: ThinkPad T470 W10DG
00:00:00.752789 Firmware type: UEFI
00:00:00.754018 Secure Boot: Disabled
00:00:00.754098 Host RAM: 15747MB (15.3GB) total, 15241MB (14.8GB) available
00:00:00.754105 Executable: /usr/lib/virtualbox/VirtualBox
00:00:00.754106 Process ID: 28878
00:00:00.754107 Package type: LINUX_64BITS_GENERIC (OSE)
00:00:00.754164 Qt version: 5.15.2
00:00:00.818153 GUI: UIMediumEnumerator: Medium-enumeration started...
00:00:01.872246 GUI: UIDesktopWidgetWatchdog::sltHandleHostScreenAvailableGeometryCalculated: Screen 0 work area is actually resized to: 3x27 x 1906x1042
00:00:01.891980 GUI: UIMediumEnumerator: Medium-enumeration finished!
00:01:23.323347 GUI: UIMediumEnumerator: Medium with key={{8c3a9663-31c2-47ea-abd1-34a6156e5775}} created
00:01:23.520396 GUI: UIMediumEnumerator: Medium-enumeration finished!
00:03:14.125974 GUI: UIMediumEnumerator: Medium-enumeration finished!
00:03:31.503742 GUI: UIMediumEnumerator: Medium-enumeration finished!
00:03:35.645737 GUI: UIMediumEnumerator: Medium-enumeration finished!
00:03:35.741743 GUI: UIMediumEnumerator: Medium-enumeration finished!
