00:00:00.725015 VirtualBox GUI VM Selector Window 6.1.28 r147628 linux.amd64 (Oct 20 2021 21:54:22) release log
00:00:00.725019 Log opened 2021-10-23T14:08:47.823011000Z
00:00:00.725020 Build Type: release
00:00:00.725025 OS Product: Linux
00:00:00.725028 OS Release: 5.14.14-arch1-1
00:00:00.725031 OS Version: #1 SMP PREEMPT Wed, 20 Oct 2021 21:35:18 +0000
00:00:00.725067 DMI Product Name: 20JNS10501
00:00:00.725084 DMI Product Version: ThinkPad T470 W10DG
00:00:00.725092 Firmware type: UEFI
00:00:00.726326 Secure Boot: Disabled
00:00:00.726404 Host RAM: 15747MB (15.3GB) total, 15323MB (14.9GB) available
00:00:00.726411 Executable: /usr/lib/virtualbox/VirtualBox
00:00:00.726412 Process ID: 4424
00:00:00.726413 Package type: LINUX_64BITS_GENERIC (OSE)
00:00:00.726462 Qt version: 5.15.2
00:00:00.800584 GUI: UIMediumEnumerator: Medium-enumeration started...
00:00:01.918380 GUI: UIDesktopWidgetWatchdog::sltHandleHostScreenAvailableGeometryCalculated: Screen 0 work area is actually resized to: 3x27 x 1906x1042
00:00:01.938979 GUI: UIMediumEnumerator: Medium-enumeration finished!
00:00:54.341563 GUI: UIMediumEnumerator: Medium with key={{4c0543bb-6423-41a0-91cd-b47a3ffe318a}} created
00:00:54.522141 GUI: UIMediumEnumerator: Medium-enumeration finished!
00:01:44.579904 GUI: UIMediumEnumerator: Medium-enumeration finished!
00:01:54.644634 GUI: UIMediumEnumerator: Medium-enumeration finished!
00:01:58.726248 GUI: UIMediumEnumerator: Medium-enumeration finished!
00:01:58.822561 GUI: UIMediumEnumerator: Medium-enumeration finished!
