00:00:00.000311 main     VirtualBox XPCOM Server 6.1.28 r147628 linux.amd64 (Oct 20 2021 21:54:22) release log
00:00:00.000313 main     Log opened 2021-10-23T17:12:28.155667000Z
00:00:00.000314 main     Build Type: release
00:00:00.000316 main     OS Product: Linux
00:00:00.000317 main     OS Release: 5.14.14-arch1-1
00:00:00.000318 main     OS Version: #1 SMP PREEMPT Wed, 20 Oct 2021 21:35:18 +0000
00:00:00.000334 main     DMI Product Name: 20JNS10501
00:00:00.000341 main     DMI Product Version: ThinkPad T470 W10DG
00:00:00.000345 main     Firmware type: UEFI
00:00:00.001083 main     Secure Boot: Disabled
00:00:00.001122 main     Host RAM: 15747MB (15.3GB) total, 15298MB (14.9GB) available
00:00:00.001125 main     Executable: /usr/lib/virtualbox/VBoxSVC
00:00:00.001126 main     Process ID: 111249
00:00:00.001126 main     Package type: LINUX_64BITS_GENERIC (OSE)
00:00:00.002762 main     IPC socket path: /tmp/.vbox-mohseen-ipc/ipcd
00:00:00.109069 nspr-2   VirtualBox: object creation starts
00:00:00.109208 nspr-2   Home directory: '/home/mohseen/.config/VirtualBox'
00:00:00.109475 nspr-2   Loading settings file "/home/mohseen/.config/VirtualBox/VirtualBox.xml" with version "1.12-linux"
00:00:00.113129 nspr-2   USB: Unknown USB device detected (idVendor: 0x138a, idProduct: 0x0097)
00:00:00.113200 nspr-2   USB: Unknown USB device detected (idVendor: 0x8087, idProduct: 0x0a2b)
00:00:00.113360 nspr-2   Successfully initialised host USB using sysfs
00:00:00.138980 nspr-2   NetIfAdpCtlOut: VBoxNetAdpCtl: Error while retrieving link speed for wlan0: VBoxNetAdpCtl: ioctl failed: Operation not supported
00:00:00.165936 nspr-2   HostDnsMonitor: initializing
00:00:00.166514 nspr-2   NAT: resolv.conf: nameserver 192.168.1.1
00:00:00.166537 nspr-2   NAT: resolv.conf: FIXME: ignoring IPv6 zone %wlan0
00:00:00.166543 nspr-2   NAT: resolv.conf: nameserver fe80::4ec5:3eff:fe06:c910
00:00:00.166562 nspr-2   HostDnsMonitor: updating information
00:00:00.166586 nspr-2   HostDnsMonitor: old information
00:00:00.166591 nspr-2     no server entries
00:00:00.166597 nspr-2     no domain set
00:00:00.166602 nspr-2     no search string entries
00:00:00.166607 nspr-2   HostDnsMonitor: new information
00:00:00.166611 nspr-2     server 1: 192.168.1.1
00:00:00.166617 nspr-2     server 2: fe80::4ec5:3eff:fe06:c910%wlan0
00:00:00.166623 nspr-2     domain: home
00:00:00.166628 nspr-2     search string 1: home
00:00:00.171747 nspr-2   VD: VDInit finished with VINF_SUCCESS
00:00:00.177200 nspr-2   Loading settings file "/home/mohseen/VirtualBox VMs/_Windows LTSC/_Windows LTSC.vbox" with version "1.15-linux"
00:00:00.178003 nspr-2   Loading settings file "/home/mohseen/VirtualBox VMs/MXLINUX/MXLINUX.vbox" with version "1.16-linux"
00:00:00.179394 nspr-2   OCI: Local config file '/home/mohseen/.config/VirtualBox/oci_config' does not exist
00:00:00.179418 nspr-2   OCI: Original config file '/home/mohseen/.oci/config' does not exist
00:00:00.179423 nspr-2   OCI: Reading profiles finished with status NS_OK
00:00:00.179430 nspr-2   ExtPack: Created cloud provider 'OCI' (hrc=NS_OK)
00:00:00.179447 nspr-2   VirtualBox: object created
00:00:05.466815 nspr-3   Launched VM: 872425264 pid: 111332 (0x1b2e4) frontend: GUI/Qt name: MXLINUX
00:00:06.343410 nspr-2   Load [/usr/lib/virtualbox/ExtensionPacks/Oracle_VM_VirtualBox_Extension_Pack/linux.amd64/VBoxHostWebcam.so] vrc=VINF_SUCCESS
00:00:12.860386 nspr-3   ERROR [COM]: aRC=VBOX_E_IPRT_ERROR (0x80bb0005) aIID={85632c68-b5bb-4316-a900-5eb28d3413df} aComponent={SessionMachine} aText={Saved screenshot data is not available (VERR_NOT_SUPPORTED)}, preserve=false aResultDetail=-37
00:00:12.874495 nspr-6   NetIfAdpCtlOut: VBoxNetAdpCtl: Error while retrieving link speed for wlan0: VBoxNetAdpCtl: ioctl failed: Operation not supported
00:03:12.629550 nspr-8   ERROR [COM]: aRC=VBOX_E_IPRT_ERROR (0x80bb0005) aIID={85632c68-b5bb-4316-a900-5eb28d3413df} aComponent={SessionMachine} aText={Saved screenshot data is not available (VERR_NOT_SUPPORTED)}, preserve=false aResultDetail=-37
00:03:12.662500 nspr-8   Saving settings file "/home/mohseen/VirtualBox VMs/MXLINUX/MXLINUX.vbox" with version "1.16-linux"
00:03:12.947072 nspr-5   Saving settings file "/home/mohseen/VirtualBox VMs/MXLINUX/MXLINUX.vbox" with version "1.16-linux"
00:03:13.667895 nspr-5   Saving settings file "/home/mohseen/VirtualBox VMs/MXLINUX/MXLINUX.vbox" with version "1.16-linux"
00:03:39.546191 nspr-4   NetIfAdpCtlOut: VBoxNetAdpCtl: Error while retrieving link speed for wlan0: VBoxNetAdpCtl: ioctl failed: Operation not supported
00:03:39.936393 nspr-4   Saving settings file "/home/mohseen/VirtualBox VMs/MXLINUX/MXLINUX.vbox" with version "1.16-linux"
00:03:41.595306 nspr-8   Saving settings file "/home/mohseen/VirtualBox VMs/MXLINUX/MXLINUX.vbox" with version "1.16-linux"
00:03:48.207554 nspr-5   Saving settings file "/home/mohseen/VirtualBox VMs/MXLINUX/MXLINUX.vbox" with version "1.16-linux"
00:03:49.619512 nspr-2   Saving settings file "/home/mohseen/VirtualBox VMs/MXLINUX/MXLINUX.vbox" with version "1.16-linux"
00:04:17.489250 nspr-6   Saving settings file "/home/mohseen/VirtualBox VMs/MXLINUX/MXLINUX.vbox" with version "1.16-linux"
00:04:17.595441 nspr-8   Saving settings file "/home/mohseen/VirtualBox VMs/MXLINUX/MXLINUX.vbox" with version "1.16-linux"
00:07:07.343442 nspr-2   Saving settings file "/home/mohseen/VirtualBox VMs/MXLINUX/MXLINUX.vbox" with version "1.16-linux"
00:07:20.116904 nspr-4   Saving settings file "/home/mohseen/.config/VirtualBox/VirtualBox.xml" with version "1.12-linux"
00:07:20.136821 nspr-8   Saving settings file "/home/mohseen/.config/VirtualBox/VirtualBox.xml" with version "1.12-linux"
00:07:20.154769 nspr-5   Saving settings file "/home/mohseen/.config/VirtualBox/VirtualBox.xml" with version "1.12-linux"
00:07:20.172145 nspr-4   Saving settings file "/home/mohseen/.config/VirtualBox/VirtualBox.xml" with version "1.12-linux"
00:07:45.616324 dns-monitor NAT: resolv.conf: nameserver 192.168.1.1
00:07:45.616394 dns-monitor NAT: resolv.conf: FIXME: ignoring IPv6 zone %wlan0
00:07:45.616407 dns-monitor NAT: resolv.conf: nameserver fe80::4ec5:3eff:fe06:c910
00:07:45.616443 dns-monitor HostDnsMonitor: updating information
00:07:45.616458 dns-monitor HostDnsMonitor: unchanged
00:08:53.469969 main     Saving settings file "/home/mohseen/VirtualBox VMs/MXLINUX/MXLINUX.vbox" with version "1.16-linux"
00:08:53.557208 Watcher  Reaper: Pid 111332 (1b2e4) was signalled: 15 (0xf)
00:08:58.470662 main     VirtualBox: object deletion starts
00:08:58.470732 main     ERROR [COM]: aRC=VBOX_E_OBJECT_IN_USE (0x80bb000c) aIID={ad47ad09-787b-44ab-b343-a082a3f2dfb1} aComponent={MediumWrap} aText={Medium '/home/mohseen/VirtualBox VMs/_Windows LTSC/windows-disk001.vdi' cannot be closed because it is still attached to 1 virtual machines}, preserve=false aResultDetail=0
00:08:58.470998 main     ERROR [COM]: aRC=VBOX_E_OBJECT_IN_USE (0x80bb000c) aIID={ad47ad09-787b-44ab-b343-a082a3f2dfb1} aComponent={MediumWrap} aText={Medium '/home/mohseen/VirtualBox VMs/MXLINUX/MXLINUX.vdi' cannot be closed because it is still attached to 1 virtual machines}, preserve=false aResultDetail=0
00:08:58.471640 main     HostDnsMonitor: shutting down ...
00:08:58.476271 main     HostDnsMonitor: shut down
00:08:58.560275 Watcher  ERROR [COM]: aRC=E_ACCESSDENIED (0x80070005) aIID={d0a0163f-e254-4e5b-a1f2-011cf991c38d} aComponent={VirtualBoxWrap} aText={The object is not ready}, preserve=false aResultDetail=0
00:09:01.145906 main     VirtualBox: object deleted
