00:00:00.003660 main     VirtualBox XPCOM Server 6.1.28 r147628 linux.amd64 (Oct 20 2021 21:54:22) release log
00:00:00.003665 main     Log opened 2021-10-23T14:08:47.475515000Z
00:00:00.003667 main     Build Type: release
00:00:00.003673 main     OS Product: Linux
00:00:00.003676 main     OS Release: 5.14.14-arch1-1
00:00:00.003679 main     OS Version: #1 SMP PREEMPT Wed, 20 Oct 2021 21:35:18 +0000
00:00:00.003718 main     DMI Product Name: 20JNS10501
00:00:00.003737 main     DMI Product Version: ThinkPad T470 W10DG
00:00:00.003745 main     Firmware type: UEFI
00:00:00.004996 main     Secure Boot: Disabled
00:00:00.005075 main     Host RAM: 15747MB (15.3GB) total, 15326MB (14.9GB) available
00:00:00.005082 main     Executable: /usr/lib/virtualbox/VBoxSVC
00:00:00.005084 main     Process ID: 4450
00:00:00.005085 main     Package type: LINUX_64BITS_GENERIC (OSE)
00:00:00.009189 main     IPC socket path: /tmp/.vbox-mohseen-ipc/ipcd
00:00:00.127888 nspr-2   VirtualBox: object creation starts
00:00:00.128056 nspr-2   Home directory: '/home/mohseen/.config/VirtualBox'
00:00:00.129084 nspr-2   Loading settings file "/home/mohseen/.config/VirtualBox/VirtualBox.xml" with version "1.12-linux"
00:00:00.143698 nspr-2   USB: Unknown USB device detected (idVendor: 0x138a, idProduct: 0x0097)
00:00:00.143843 nspr-2   USB: Unknown USB device detected (idVendor: 0x8087, idProduct: 0x0a2b)
00:00:00.144068 nspr-2   Successfully initialised host USB using sysfs
00:00:00.174904 nspr-2   NetIfAdpCtlOut: VBoxNetAdpCtl: Error while retrieving link speed for wlan0: VBoxNetAdpCtl: ioctl failed: Operation not supported
00:00:00.205648 nspr-2   HostDnsMonitor: initializing
00:00:00.206323 nspr-2   NAT: resolv.conf: nameserver 192.168.1.1
00:00:00.206347 nspr-2   NAT: resolv.conf: FIXME: ignoring IPv6 zone %wlan0
00:00:00.206354 nspr-2   NAT: resolv.conf: nameserver fe80::4ec5:3eff:fe06:c910
00:00:00.206375 nspr-2   HostDnsMonitor: updating information
00:00:00.206400 nspr-2   HostDnsMonitor: old information
00:00:00.206407 nspr-2     no server entries
00:00:00.206413 nspr-2     no domain set
00:00:00.206418 nspr-2     no search string entries
00:00:00.206423 nspr-2   HostDnsMonitor: new information
00:00:00.206429 nspr-2     server 1: 192.168.1.1
00:00:00.206435 nspr-2     server 2: fe80::4ec5:3eff:fe06:c910%wlan0
00:00:00.206441 nspr-2     domain: home
00:00:00.206446 nspr-2     search string 1: home
00:00:00.226566 nspr-2   VD: VDInit finished with VINF_SUCCESS
00:00:00.243195 nspr-2   Loading settings file "/home/mohseen/VirtualBox VMs/_Windows LTSC/_Windows LTSC.vbox" with version "1.15-linux"
00:00:00.245112 nspr-2   Loading settings file "/home/mohseen/VirtualBox VMs/MXLINUX/MXLINUX.vbox" with version "1.16-linux"
00:00:00.251951 nspr-2   OCI: Local config file '/home/mohseen/.config/VirtualBox/oci_config' does not exist
00:00:00.251995 nspr-2   OCI: Original config file '/home/mohseen/.oci/config' does not exist
00:00:00.252004 nspr-2   OCI: Reading profiles finished with status NS_OK
00:00:00.252017 nspr-2   ExtPack: Created cloud provider 'OCI' (hrc=NS_OK)
00:00:00.252058 nspr-2   VirtualBox: object created
00:00:53.448507 createBase Saving settings file "/home/mohseen/.config/VirtualBox/VirtualBox.xml" with version "1.12-linux"
00:00:53.993344 nspr-4   Saving settings file "/home/mohseen/VirtualBox VMs/bodhi/bodhi.vbox" with version "1.16-linux"
00:00:54.004818 nspr-2   Saving settings file "/home/mohseen/VirtualBox VMs/bodhi/bodhi.vbox" with version "1.16-linux"
00:00:54.009502 nspr-2   Saving settings file "/home/mohseen/.config/VirtualBox/VirtualBox.xml" with version "1.12-linux"
00:00:54.027679 nspr-4   Saving settings file "/home/mohseen/.config/VirtualBox/VirtualBox.xml" with version "1.12-linux"
00:00:54.037594 nspr-3   Saving settings file "/home/mohseen/VirtualBox VMs/bodhi/bodhi.vbox" with version "1.16-linux"
00:00:57.520156 nspr-4   NetIfAdpCtlOut: VBoxNetAdpCtl: Error while retrieving link speed for wlan0: VBoxNetAdpCtl: ioctl failed: Operation not supported
00:00:57.566794 nspr-3   NetIfAdpCtlOut: VBoxNetAdpCtl: Error while retrieving link speed for wlan0: VBoxNetAdpCtl: ioctl failed: Operation not supported
00:01:44.114581 nspr-2   Saving settings file "/home/mohseen/VirtualBox VMs/bodhi/bodhi.vbox" with version "1.16-linux"
00:01:45.332648 nspr-5   Launched VM: 4026546256 pid: 5503 (0x157f) frontend: GUI/Qt name: bodhi
00:01:46.749218 nspr-7   Load [/usr/lib/virtualbox/ExtensionPacks/Oracle_VM_VirtualBox_Extension_Pack/linux.amd64/VBoxHostWebcam.so] vrc=VINF_SUCCESS
00:01:47.072341 nspr-5   ERROR [COM]: aRC=VBOX_E_IPRT_ERROR (0x80bb0005) aIID={85632c68-b5bb-4316-a900-5eb28d3413df} aComponent={SessionMachine} aText={Saved screenshot data is not available (VERR_NOT_SUPPORTED)}, preserve=false aResultDetail=-37
00:01:47.145257 nspr-5   NetIfAdpCtlOut: VBoxNetAdpCtl: Error while retrieving link speed for wlan0: VBoxNetAdpCtl: ioctl failed: Operation not supported
00:01:54.265274 nspr-3   Saving settings file "/home/mohseen/.config/VirtualBox/VirtualBox.xml" with version "1.12-linux"
00:01:58.320138 nspr-5   Saving settings file "/home/mohseen/.config/VirtualBox/VirtualBox.xml" with version "1.12-linux"
00:01:58.330421 nspr-5   Saving settings file "/home/mohseen/VirtualBox VMs/bodhi/bodhi.vbox" with version "1.16-linux"
00:02:03.329841 nspr-5   Saving settings file "/home/mohseen/.config/VirtualBox/VirtualBox.xml" with version "1.12-linux"
00:02:03.349692 nspr-6   Saving settings file "/home/mohseen/.config/VirtualBox/VirtualBox.xml" with version "1.12-linux"
00:02:03.411675 nspr-4   Saving settings file "/home/mohseen/.config/VirtualBox/VirtualBox.xml" with version "1.12-linux"
00:02:03.427047 nspr-2   Saving settings file "/home/mohseen/.config/VirtualBox/VirtualBox.xml" with version "1.12-linux"
00:02:03.463238 nspr-4   Saving settings file "/home/mohseen/.config/VirtualBox/VirtualBox.xml" with version "1.12-linux"
00:11:25.538239 dns-monitor NAT: resolv.conf: nameserver 192.168.1.1
00:11:25.538277 dns-monitor NAT: resolv.conf: FIXME: ignoring IPv6 zone %wlan0
00:11:25.538284 dns-monitor NAT: resolv.conf: nameserver fe80::4ec5:3eff:fe06:c910
00:11:25.538302 dns-monitor HostDnsMonitor: updating information
00:11:25.538308 dns-monitor HostDnsMonitor: unchanged
00:13:50.658834 nspr-4   Saving settings file "/home/mohseen/VirtualBox VMs/bodhi/bodhi.vbox" with version "1.16-linux"
00:19:22.648697 nspr-4   Saving settings file "/home/mohseen/VirtualBox VMs/bodhi/bodhi.vbox" with version "1.16-linux"
00:30:44.619418 nspr-7   Saving settings file "/home/mohseen/VirtualBox VMs/bodhi/bodhi.vbox" with version "1.16-linux"
00:30:44.754943 nspr-6   Saving settings file "/home/mohseen/VirtualBox VMs/bodhi/bodhi.vbox" with version "1.16-linux"
00:30:45.456957 nspr-4   Saving settings file "/home/mohseen/VirtualBox VMs/bodhi/bodhi.vbox" with version "1.16-linux"
00:30:45.501438 nspr-5   Saving settings file "/home/mohseen/VirtualBox VMs/bodhi/bodhi.vbox" with version "1.16-linux"
00:30:51.959787 nspr-2   Launched VM: 4026542016 pid: 21997 (0x55ed) frontend: GUI/Qt name: bodhi
00:30:53.281741 nspr-5   Load [/usr/lib/virtualbox/ExtensionPacks/Oracle_VM_VirtualBox_Extension_Pack/linux.amd64/VBoxHostWebcam.so] vrc=VINF_SUCCESS
00:30:53.590180 nspr-2   ERROR [COM]: aRC=VBOX_E_IPRT_ERROR (0x80bb0005) aIID={85632c68-b5bb-4316-a900-5eb28d3413df} aComponent={SessionMachine} aText={Saved screenshot data is not available (VERR_NOT_SUPPORTED)}, preserve=false aResultDetail=-37
00:30:53.643094 nspr-8   NetIfAdpCtlOut: VBoxNetAdpCtl: Error while retrieving link speed for wlan0: VBoxNetAdpCtl: ioctl failed: Operation not supported
00:30:56.105824 nspr-6   Saving settings file "/home/mohseen/.config/VirtualBox/VirtualBox.xml" with version "1.12-linux"
00:30:56.130713 nspr-5   Saving settings file "/home/mohseen/.config/VirtualBox/VirtualBox.xml" with version "1.12-linux"
00:31:40.924498 nspr-2   Saving settings file "/home/mohseen/VirtualBox VMs/bodhi/bodhi.vbox" with version "1.16-linux"
00:31:41.602124 nspr-5   Saving settings file "/home/mohseen/VirtualBox VMs/bodhi/bodhi.vbox" with version "1.16-linux"
00:31:50.094372 nspr-8   Saving settings file "/home/mohseen/.config/VirtualBox/VirtualBox.xml" with version "1.12-linux"
00:31:53.327400 nspr-5   Saving settings file "/home/mohseen/.config/VirtualBox/VirtualBox.xml" with version "1.12-linux"
00:31:53.347965 nspr-4   Saving settings file "/home/mohseen/.config/VirtualBox/VirtualBox.xml" with version "1.12-linux"
00:31:53.378675 nspr-5   Saving settings file "/home/mohseen/.config/VirtualBox/VirtualBox.xml" with version "1.12-linux"
00:31:53.393234 nspr-2   Saving settings file "/home/mohseen/.config/VirtualBox/VirtualBox.xml" with version "1.12-linux"
00:31:53.407744 nspr-6   Saving settings file "/home/mohseen/.config/VirtualBox/VirtualBox.xml" with version "1.12-linux"
00:31:58.935847 main     VirtualBox: object deletion starts
00:31:58.935929 main     ERROR [COM]: aRC=VBOX_E_OBJECT_IN_USE (0x80bb000c) aIID={ad47ad09-787b-44ab-b343-a082a3f2dfb1} aComponent={MediumWrap} aText={Medium '/home/mohseen/VirtualBox VMs/_Windows LTSC/windows-disk001.vdi' cannot be closed because it is still attached to 1 virtual machines}, preserve=false aResultDetail=0
00:31:58.936185 main     ERROR [COM]: aRC=VBOX_E_OBJECT_IN_USE (0x80bb000c) aIID={ad47ad09-787b-44ab-b343-a082a3f2dfb1} aComponent={MediumWrap} aText={Medium '/home/mohseen/VirtualBox VMs/MXLINUX/MXLINUX.vdi' cannot be closed because it is still attached to 1 virtual machines}, preserve=false aResultDetail=0
00:31:58.936876 main     HostDnsMonitor: shutting down ...
00:31:58.939897 Watcher  ERROR [COM]: aRC=E_ACCESSDENIED (0x80070005) aIID={d0a0163f-e254-4e5b-a1f2-011cf991c38d} aComponent={VirtualBoxWrap} aText={The object is not ready}, preserve=false aResultDetail=0
00:31:58.944004 main     HostDnsMonitor: shut down
00:32:03.957337 main     {00007f9af401bd90} HostPowerServiceLinux::~HostPowerServiceLinux: RTThreadWait() for 5000 ms failed with VERR_TIMEOUT
00:32:03.958261 main     VirtualBox: object deleted
