00:00:00.006969 main     VirtualBox XPCOM Server 6.1.28 r147628 linux.amd64 (Oct 20 2021 21:54:22) release log
00:00:00.006974 main     Log opened 2021-10-23T07:35:18.744953000Z
00:00:00.006976 main     Build Type: release
00:00:00.006980 main     OS Product: Linux
00:00:00.006983 main     OS Release: 5.14.14-arch1-1
00:00:00.006985 main     OS Version: #1 SMP PREEMPT Wed, 20 Oct 2021 21:35:18 +0000
00:00:00.007021 main     DMI Product Name: 20JNS10501
00:00:00.007038 main     DMI Product Version: ThinkPad T470 W10DG
00:00:00.007046 main     Firmware type: UEFI
00:00:00.008178 main     Secure Boot: Disabled
00:00:00.008262 main     Host RAM: 15747MB (15.3GB) total, 15246MB (14.8GB) available
00:00:00.008268 main     Executable: /usr/lib/virtualbox/VBoxSVC
00:00:00.008269 main     Process ID: 28905
00:00:00.008270 main     Package type: LINUX_64BITS_GENERIC (OSE)
00:00:00.012306 main     IPC socket path: /tmp/.vbox-mohseen-ipc/ipcd
00:00:00.132813 nspr-2   VirtualBox: object creation starts
00:00:00.132981 nspr-2   Home directory: '/home/mohseen/.config/VirtualBox'
00:00:00.134001 nspr-2   Loading settings file "/home/mohseen/.config/VirtualBox/VirtualBox.xml" with version "1.12-linux"
00:00:00.148794 nspr-2   USB: Unknown USB device detected (idVendor: 0x138a, idProduct: 0x0097)
00:00:00.148912 nspr-2   USB: Unknown USB device detected (idVendor: 0x8087, idProduct: 0x0a2b)
00:00:00.149218 nspr-2   Successfully initialised host USB using sysfs
00:00:00.177606 nspr-2   NetIfAdpCtlOut: VBoxNetAdpCtl: Error while retrieving link speed for wlan0: VBoxNetAdpCtl: ioctl failed: Operation not supported
00:00:00.207663 nspr-2   HostDnsMonitor: initializing
00:00:00.208307 nspr-2   NAT: resolv.conf: nameserver 192.168.1.1
00:00:00.208337 nspr-2   NAT: resolv.conf: FIXME: ignoring IPv6 zone %wlan0
00:00:00.208344 nspr-2   NAT: resolv.conf: nameserver fe80::4ec5:3eff:fe06:c910
00:00:00.208366 nspr-2   HostDnsMonitor: updating information
00:00:00.208391 nspr-2   HostDnsMonitor: old information
00:00:00.208397 nspr-2     no server entries
00:00:00.208403 nspr-2     no domain set
00:00:00.208408 nspr-2     no search string entries
00:00:00.208414 nspr-2   HostDnsMonitor: new information
00:00:00.208419 nspr-2     server 1: 192.168.1.1
00:00:00.208425 nspr-2     server 2: fe80::4ec5:3eff:fe06:c910%wlan0
00:00:00.208431 nspr-2     domain: home
00:00:00.208437 nspr-2     search string 1: home
00:00:00.230681 nspr-2   VD: VDInit finished with VINF_SUCCESS
00:00:00.247226 nspr-2   Loading settings file "/home/mohseen/VirtualBox VMs/_Windows LTSC/_Windows LTSC.vbox" with version "1.15-linux"
00:00:00.254951 nspr-2   OCI: Local config file '/home/mohseen/.config/VirtualBox/oci_config' does not exist
00:00:00.255033 nspr-2   OCI: Original config file '/home/mohseen/.oci/config' does not exist
00:00:00.255042 nspr-2   OCI: Reading profiles finished with status NS_OK
00:00:00.255058 nspr-2   ExtPack: Created cloud provider 'OCI' (hrc=NS_OK)
00:00:00.255102 nspr-2   VirtualBox: object created
00:01:22.398273 createBase Saving settings file "/home/mohseen/.config/VirtualBox/VirtualBox.xml" with version "1.12-linux"
00:01:22.943207 nspr-4   Saving settings file "/home/mohseen/VirtualBox VMs/MXLINUX/MXLINUX.vbox" with version "1.16-linux"
00:01:22.952186 nspr-4   Saving settings file "/home/mohseen/VirtualBox VMs/MXLINUX/MXLINUX.vbox" with version "1.16-linux"
00:01:22.958536 nspr-4   Saving settings file "/home/mohseen/.config/VirtualBox/VirtualBox.xml" with version "1.12-linux"
00:01:22.981358 nspr-4   Saving settings file "/home/mohseen/.config/VirtualBox/VirtualBox.xml" with version "1.12-linux"
00:01:22.990250 nspr-2   Saving settings file "/home/mohseen/VirtualBox VMs/MXLINUX/MXLINUX.vbox" with version "1.16-linux"
00:01:26.405609 nspr-2   NetIfAdpCtlOut: VBoxNetAdpCtl: Error while retrieving link speed for wlan0: VBoxNetAdpCtl: ioctl failed: Operation not supported
00:01:26.457706 nspr-4   NetIfAdpCtlOut: VBoxNetAdpCtl: Error while retrieving link speed for wlan0: VBoxNetAdpCtl: ioctl failed: Operation not supported
00:03:13.622787 nspr-3   Saving settings file "/home/mohseen/VirtualBox VMs/MXLINUX/MXLINUX.vbox" with version "1.16-linux"
00:03:16.139319 nspr-4   Launched VM: 3825219184 pid: 30810 (0x785a) frontend: GUI/Qt name: MXLINUX
00:03:17.496125 nspr-3   Load [/usr/lib/virtualbox/ExtensionPacks/Oracle_VM_VirtualBox_Extension_Pack/linux.amd64/VBoxHostWebcam.so] vrc=VINF_SUCCESS
00:03:17.840323 nspr-6   ERROR [COM]: aRC=VBOX_E_IPRT_ERROR (0x80bb0005) aIID={85632c68-b5bb-4316-a900-5eb28d3413df} aComponent={SessionMachine} aText={Saved screenshot data is not available (VERR_NOT_SUPPORTED)}, preserve=false aResultDetail=-37
00:03:17.904751 nspr-5   NetIfAdpCtlOut: VBoxNetAdpCtl: Error while retrieving link speed for wlan0: VBoxNetAdpCtl: ioctl failed: Operation not supported
00:03:31.092424 nspr-2   Saving settings file "/home/mohseen/.config/VirtualBox/VirtualBox.xml" with version "1.12-linux"
00:03:31.108981 nspr-5   Saving settings file "/home/mohseen/.config/VirtualBox/VirtualBox.xml" with version "1.12-linux"
00:03:35.210665 nspr-3   Saving settings file "/home/mohseen/.config/VirtualBox/VirtualBox.xml" with version "1.12-linux"
00:03:35.220530 nspr-2   Saving settings file "/home/mohseen/VirtualBox VMs/MXLINUX/MXLINUX.vbox" with version "1.16-linux"
00:03:41.497817 nspr-6   Saving settings file "/home/mohseen/.config/VirtualBox/VirtualBox.xml" with version "1.12-linux"
00:03:41.511808 nspr-4   Saving settings file "/home/mohseen/.config/VirtualBox/VirtualBox.xml" with version "1.12-linux"
00:03:41.548666 nspr-4   Saving settings file "/home/mohseen/.config/VirtualBox/VirtualBox.xml" with version "1.12-linux"
00:03:41.560521 nspr-9   Saving settings file "/home/mohseen/.config/VirtualBox/VirtualBox.xml" with version "1.12-linux"
00:03:41.570844 nspr-7   Saving settings file "/home/mohseen/.config/VirtualBox/VirtualBox.xml" with version "1.12-linux"
00:07:42.404272 nspr-6   Saving settings file "/home/mohseen/VirtualBox VMs/MXLINUX/MXLINUX.vbox" with version "1.16-linux"
00:11:29.567440 nspr-2   Saving settings file "/home/mohseen/VirtualBox VMs/MXLINUX/MXLINUX.vbox" with version "1.16-linux"
00:11:29.653699 nspr-7   ERROR [COM]: aRC=VBOX_E_IPRT_ERROR (0x80bb0005) aIID={85632c68-b5bb-4316-a900-5eb28d3413df} aComponent={SessionMachine} aText={Saved screenshot data is not available (VERR_NOT_SUPPORTED)}, preserve=false aResultDetail=-37
00:11:43.877557 nspr-3   ERROR [COM]: aRC=VBOX_E_IPRT_ERROR (0x80bb0005) aIID={85632c68-b5bb-4316-a900-5eb28d3413df} aComponent={SessionMachine} aText={Saved screenshot data is not available (VERR_NOT_SUPPORTED)}, preserve=false aResultDetail=-37
00:12:05.867912 nspr-4   Saving settings file "/home/mohseen/.config/VirtualBox/VirtualBox.xml" with version "1.12-linux"
00:12:05.876668 nspr-8   Saving settings file "/home/mohseen/VirtualBox VMs/MXLINUX/MXLINUX.vbox" with version "1.16-linux"
00:14:52.593317 dns-monitor NAT: resolv.conf: nameserver 192.168.1.1
00:14:52.593433 dns-monitor NAT: resolv.conf: FIXME: ignoring IPv6 zone %wlan0
00:14:52.593454 dns-monitor NAT: resolv.conf: nameserver fe80::4ec5:3eff:fe06:c910
00:14:52.593498 dns-monitor HostDnsMonitor: updating information
00:14:52.593513 dns-monitor HostDnsMonitor: unchanged
00:15:13.075138 nspr-7   Saving settings file "/home/mohseen/VirtualBox VMs/MXLINUX/MXLINUX.vbox" with version "1.16-linux"
00:15:13.202425 nspr-2   Saving settings file "/home/mohseen/VirtualBox VMs/MXLINUX/MXLINUX.vbox" with version "1.16-linux"
00:15:13.918039 nspr-6   Saving settings file "/home/mohseen/VirtualBox VMs/MXLINUX/MXLINUX.vbox" with version "1.16-linux"
00:15:19.460469 main     VirtualBox: object deletion starts
00:15:19.460550 main     ERROR [COM]: aRC=VBOX_E_OBJECT_IN_USE (0x80bb000c) aIID={ad47ad09-787b-44ab-b343-a082a3f2dfb1} aComponent={MediumWrap} aText={Medium '/home/mohseen/VirtualBox VMs/_Windows LTSC/windows-disk001.vdi' cannot be closed because it is still attached to 1 virtual machines}, preserve=false aResultDetail=0
00:15:19.460810 main     ERROR [COM]: aRC=VBOX_E_OBJECT_IN_USE (0x80bb000c) aIID={ad47ad09-787b-44ab-b343-a082a3f2dfb1} aComponent={MediumWrap} aText={Medium '/home/mohseen/VirtualBox VMs/MXLINUX/MXLINUX.vdi' cannot be closed because it is still attached to 1 virtual machines}, preserve=false aResultDetail=0
00:15:19.461512 main     HostDnsMonitor: shutting down ...
00:15:19.475368 main     HostDnsMonitor: shut down
00:15:19.718093 Watcher  ERROR [COM]: aRC=E_ACCESSDENIED (0x80070005) aIID={d0a0163f-e254-4e5b-a1f2-011cf991c38d} aComponent={VirtualBoxWrap} aText={The object is not ready}, preserve=false aResultDetail=0
00:15:24.489058 main     {00007fd7e801b9e0} HostPowerServiceLinux::~HostPowerServiceLinux: RTThreadWait() for 5000 ms failed with VERR_TIMEOUT
00:15:24.489914 main     VirtualBox: object deleted
