00:00:00.003279 main     VirtualBox XPCOM Server 6.1.26 r145957 linux.amd64 (Jul 29 2021 12:15:28) release log
00:00:00.003283 main     Log opened 2021-10-12T09:01:15.428554000Z
00:00:00.003283 main     Build Type: release
00:00:00.003287 main     OS Product: Linux
00:00:00.003288 main     OS Release: 5.14.11-arch1-1
00:00:00.003290 main     OS Version: #1 SMP PREEMPT Sun, 10 Oct 2021 00:48:26 +0000
00:00:00.003317 main     DMI Product Name: 20JNS10501
00:00:00.003327 main     DMI Product Version: ThinkPad T470 W10DG
00:00:00.003333 main     Firmware type: UEFI
00:00:00.004208 main     Secure Boot: Disabled
00:00:00.004263 main     Host RAM: 15747MB (15.3GB) total, 14682MB (14.3GB) available
00:00:00.004267 main     Executable: /usr/lib/virtualbox/VBoxSVC
00:00:00.004268 main     Process ID: 40468
00:00:00.004269 main     Package type: LINUX_64BITS_GENERIC (OSE)
00:00:00.006670 main     IPC socket path: /tmp/.vbox-mohseen-ipc/ipcd
00:00:00.118534 nspr-2   VirtualBox: object creation starts
00:00:00.118747 nspr-2   Home directory: '/home/mohseen/.config/VirtualBox'
00:00:00.119262 nspr-2   Loading settings file "/home/mohseen/.config/VirtualBox/VirtualBox.xml" with version "1.12-linux"
00:00:00.132212 nspr-2   USB: Unknown USB device detected (idVendor: 0x138a, idProduct: 0x0097)
00:00:00.132311 nspr-2   USB: Unknown USB device detected (idVendor: 0x8087, idProduct: 0x0a2b)
00:00:00.132475 nspr-2   Successfully initialised host USB using sysfs
00:00:00.145549 nspr-2   NetIfAdpCtlOut: VBoxNetAdpCtl: Error while retrieving link speed for wlan0: VBoxNetAdpCtl: ioctl failed: Operation not supported
00:00:00.159159 nspr-2   HostDnsMonitor: initializing
00:00:00.159830 nspr-2   NAT: resolv.conf: nameserver 192.168.1.1
00:00:00.159858 nspr-2   NAT: resolv.conf: FIXME: ignoring IPv6 zone %wlan0
00:00:00.159864 nspr-2   NAT: resolv.conf: nameserver fe80::4ec5:3eff:fe06:c910
00:00:00.159884 nspr-2   HostDnsMonitor: updating information
00:00:00.159913 nspr-2   HostDnsMonitor: old information
00:00:00.159920 nspr-2     no server entries
00:00:00.159925 nspr-2     no domain set
00:00:00.159929 nspr-2     no search string entries
00:00:00.159934 nspr-2   HostDnsMonitor: new information
00:00:00.159938 nspr-2     server 1: 192.168.1.1
00:00:00.159943 nspr-2     server 2: fe80::4ec5:3eff:fe06:c910%wlan0
00:00:00.159948 nspr-2     domain: home
00:00:00.159952 nspr-2     search string 1: home
00:00:00.176646 nspr-2   VD: VDInit finished with VINF_SUCCESS
00:00:00.193794 nspr-2   Loading settings file "/home/mohseen/VirtualBox VMs/_Windows LTSC/_Windows LTSC.vbox" with version "1.15-linux"
00:00:00.200016 nspr-2   OCI: Local config file '/home/mohseen/.config/VirtualBox/oci_config' does not exist
00:00:00.200050 nspr-2   OCI: Original config file '/home/mohseen/.oci/config' does not exist
00:00:00.200057 nspr-2   OCI: Reading profiles finished with status NS_OK
00:00:00.200066 nspr-2   ExtPack: Created cloud provider 'OCI' (hrc=NS_OK)
00:00:00.200089 nspr-2   VirtualBox: object created
00:00:04.112705 nspr-3   Launched VM: 2550142784 pid: 40533 (0x9e55) frontend: GUI/Qt name:  Windows LTSC
00:00:05.014144 nspr-4   Load [/usr/lib/virtualbox/ExtensionPacks/Oracle_VM_VirtualBox_Extension_Pack/linux.amd64/VBoxHostWebcam.so] vrc=VINF_SUCCESS
00:00:07.325675 nspr-6   ERROR [COM]: aRC=VBOX_E_IPRT_ERROR (0x80bb0005) aIID={85632c68-b5bb-4316-a900-5eb28d3413df} aComponent={SessionMachine} aText={Saved screenshot data is not available (VERR_NOT_SUPPORTED)}, preserve=false aResultDetail=-37
00:00:07.336615 nspr-4   NetIfAdpCtlOut: VBoxNetAdpCtl: Error while retrieving link speed for wlan0: VBoxNetAdpCtl: ioctl failed: Operation not supported
02:16:33.909285 nspr-3   Saving settings file "/home/mohseen/VirtualBox VMs/_Windows LTSC/_Windows LTSC.vbox" with version "1.15-linux"
02:35:44.448407 nspr-4   Saving settings file "/home/mohseen/.config/VirtualBox/VirtualBox.xml" with version "1.12-linux"
02:35:44.480127 nspr-6   Saving settings file "/home/mohseen/.config/VirtualBox/VirtualBox.xml" with version "1.12-linux"
02:35:44.487191 nspr-5   Saving settings file "/home/mohseen/.config/VirtualBox/VirtualBox.xml" with version "1.12-linux"
02:35:50.013127 main     VirtualBox: object deletion starts
02:35:50.013198 main     ERROR [COM]: aRC=VBOX_E_OBJECT_IN_USE (0x80bb000c) aIID={ad47ad09-787b-44ab-b343-a082a3f2dfb1} aComponent={MediumWrap} aText={Medium '/home/mohseen/VirtualBox VMs/_Windows LTSC/windows-disk001.vdi' cannot be closed because it is still attached to 1 virtual machines}, preserve=false aResultDetail=0
02:35:50.013985 main     HostDnsMonitor: shutting down ...
02:35:50.014476 main     HostDnsMonitor: shut down
02:35:50.242788 Watcher  ERROR [COM]: aRC=E_ACCESSDENIED (0x80070005) aIID={d0a0163f-e254-4e5b-a1f2-011cf991c38d} aComponent={VirtualBoxWrap} aText={The object is not ready}, preserve=false aResultDetail=0
02:35:50.242923 main     VirtualBox: object deleted
