00:00:00.002868 main     VirtualBox XPCOM Server 6.1.28 r147628 linux.amd64 (Oct 20 2021 21:54:22) release log
00:00:00.002871 main     Log opened 2021-10-22T07:45:11.172338000Z
00:00:00.002871 main     Build Type: release
00:00:00.002873 main     OS Product: Linux
00:00:00.002874 main     OS Release: 5.14.14-arch1-1
00:00:00.002875 main     OS Version: #1 SMP PREEMPT Wed, 20 Oct 2021 21:35:18 +0000
00:00:00.002891 main     DMI Product Name: 20JNS10501
00:00:00.002898 main     DMI Product Version: ThinkPad T470 W10DG
00:00:00.002901 main     Firmware type: UEFI
00:00:00.003591 main     Secure Boot: Disabled
00:00:00.003621 main     Host RAM: 15747MB (15.3GB) total, 15227MB (14.8GB) available
00:00:00.003623 main     Executable: /usr/lib/virtualbox/VBoxSVC
00:00:00.003623 main     Process ID: 4872
00:00:00.003624 main     Package type: LINUX_64BITS_GENERIC (OSE)
00:00:00.005212 main     IPC socket path: /tmp/.vbox-mohseen-ipc/ipcd
00:00:00.111354 nspr-2   VirtualBox: object creation starts
00:00:00.111504 nspr-2   Home directory: '/home/mohseen/.config/VirtualBox'
00:00:00.116877 nspr-2   Loading settings file "/home/mohseen/.config/VirtualBox/VirtualBox.xml" with version "1.12-linux"
00:00:00.120395 nspr-2   USB: Unknown USB device detected (idVendor: 0x138a, idProduct: 0x0097)
00:00:00.120468 nspr-2   USB: Unknown USB device detected (idVendor: 0x8087, idProduct: 0x0a2b)
00:00:00.120733 nspr-2   Successfully initialised host USB using sysfs
00:00:00.149074 nspr-2   NetIfAdpCtlOut: VBoxNetAdpCtl: Error while retrieving link speed for wlan0: VBoxNetAdpCtl: ioctl failed: Operation not supported
00:00:00.178825 nspr-2   HostDnsMonitor: initializing
00:00:00.179296 nspr-2   NAT: resolv.conf: nameserver 192.168.1.1
00:00:00.179319 nspr-2   NAT: resolv.conf: FIXME: ignoring IPv6 zone %wlan0
00:00:00.179324 nspr-2   NAT: resolv.conf: nameserver fe80::4ec5:3eff:fe06:c910
00:00:00.179350 nspr-2   HostDnsMonitor: updating information
00:00:00.179375 nspr-2   HostDnsMonitor: old information
00:00:00.179384 nspr-2     no server entries
00:00:00.179391 nspr-2     no domain set
00:00:00.179396 nspr-2     no search string entries
00:00:00.179402 nspr-2   HostDnsMonitor: new information
00:00:00.179406 nspr-2     server 1: 192.168.1.1
00:00:00.179411 nspr-2     server 2: fe80::4ec5:3eff:fe06:c910%wlan0
00:00:00.179417 nspr-2     domain: home
00:00:00.179424 nspr-2     search string 1: home
00:00:00.185187 nspr-2   VD: VDInit finished with VINF_SUCCESS
00:00:00.190444 nspr-2   Loading settings file "/home/mohseen/VirtualBox VMs/_Windows LTSC/_Windows LTSC.vbox" with version "1.15-linux"
00:00:00.191414 nspr-2   OCI: Local config file '/home/mohseen/.config/VirtualBox/oci_config' does not exist
00:00:00.191433 nspr-2   OCI: Original config file '/home/mohseen/.oci/config' does not exist
00:00:00.191437 nspr-2   OCI: Reading profiles finished with status NS_OK
00:00:00.191442 nspr-2   ExtPack: Created cloud provider 'OCI' (hrc=NS_OK)
00:00:00.191453 nspr-2   VirtualBox: object created
00:00:38.001429 nspr-3   Saving settings file "/home/mohseen/.config/VirtualBox/VirtualBox.xml" with version "1.12-linux"
00:00:38.012709 nspr-2   Saving settings file "/home/mohseen/.config/VirtualBox/VirtualBox.xml" with version "1.12-linux"
00:00:43.533331 main     VirtualBox: object deletion starts
00:00:43.533408 main     ERROR [COM]: aRC=VBOX_E_OBJECT_IN_USE (0x80bb000c) aIID={ad47ad09-787b-44ab-b343-a082a3f2dfb1} aComponent={MediumWrap} aText={Medium '/home/mohseen/VirtualBox VMs/_Windows LTSC/windows-disk001.vdi' cannot be closed because it is still attached to 1 virtual machines}, preserve=false aResultDetail=0
00:00:43.534069 main     HostDnsMonitor: shutting down ...
00:00:43.548092 main     HostDnsMonitor: shut down
00:00:43.714182 Watcher  ERROR [COM]: aRC=E_ACCESSDENIED (0x80070005) aIID={d0a0163f-e254-4e5b-a1f2-011cf991c38d} aComponent={VirtualBoxWrap} aText={The object is not ready}, preserve=false aResultDetail=0
00:00:48.561549 main     {00007f3ce401b9e0} HostPowerServiceLinux::~HostPowerServiceLinux: RTThreadWait() for 5000 ms failed with VERR_TIMEOUT
00:00:48.562494 main     VirtualBox: object deleted
