00:00:00.002971 main     VirtualBox XPCOM Server 6.1.28 r147628 linux.amd64 (Oct 20 2021 21:54:22) release log
00:00:00.002976 main     Log opened 2021-10-30T09:38:35.765675000Z
00:00:00.002977 main     Build Type: release
00:00:00.002982 main     OS Product: Linux
00:00:00.002985 main     OS Release: 5.14.14-arch1-1
00:00:00.002988 main     OS Version: #1 SMP PREEMPT Wed, 20 Oct 2021 21:35:18 +0000
00:00:00.003022 main     DMI Product Name: 20JNS10501
00:00:00.003039 main     DMI Product Version: ThinkPad T470 W10DG
00:00:00.003048 main     Firmware type: UEFI
00:00:00.004402 main     Secure Boot: Disabled
00:00:00.004493 main     Host RAM: 15747MB (15.3GB) total, 14463MB (14.1GB) available
00:00:00.004500 main     Executable: /usr/lib/virtualbox/VBoxSVC
00:00:00.004502 main     Process ID: 2780
00:00:00.004503 main     Package type: LINUX_64BITS_GENERIC (OSE)
00:00:00.008799 main     IPC socket path: /tmp/.vbox-mohseen-ipc/ipcd
00:00:00.133225 nspr-2   VirtualBox: object creation starts
00:00:00.133409 nspr-2   Home directory: '/home/mohseen/.config/VirtualBox'
00:00:00.134219 nspr-2   Loading settings file "/home/mohseen/.config/VirtualBox/VirtualBox.xml" with version "1.12-linux"
00:00:00.148165 nspr-2   USB: Unknown USB device detected (idVendor: 0x138a, idProduct: 0x0097)
00:00:00.148257 nspr-2   USB: Unknown USB device detected (idVendor: 0x8087, idProduct: 0x0a2b)
00:00:00.148530 nspr-2   Successfully initialised host USB using sysfs
00:00:00.180966 nspr-2   NetIfAdpCtlOut: VBoxNetAdpCtl: Error while retrieving link speed for wlan0: VBoxNetAdpCtl: ioctl failed: Operation not supported
00:00:00.196141 nspr-2   HostDnsMonitor: initializing
00:00:00.196332 nspr-2   NAT: resolv.conf: nameserver 192.168.1.1
00:00:00.196343 nspr-2   NAT: resolv.conf: FIXME: ignoring IPv6 zone %wlan0
00:00:00.196346 nspr-2   NAT: resolv.conf: nameserver fe80::4ec5:3eff:fe06:c910
00:00:00.196356 nspr-2   HostDnsMonitor: updating information
00:00:00.196368 nspr-2   HostDnsMonitor: old information
00:00:00.196371 nspr-2     no server entries
00:00:00.196374 nspr-2     no domain set
00:00:00.196376 nspr-2     no search string entries
00:00:00.196378 nspr-2   HostDnsMonitor: new information
00:00:00.196381 nspr-2     server 1: 192.168.1.1
00:00:00.196385 nspr-2     server 2: fe80::4ec5:3eff:fe06:c910%wlan0
00:00:00.196389 nspr-2     domain: home
00:00:00.196392 nspr-2     search string 1: home
00:00:00.211028 nspr-2   VD: VDInit finished with VINF_SUCCESS
00:00:00.220226 nspr-2   Loading settings file "/home/mohseen/VirtualBox VMs/_Windows LTSC/_Windows LTSC.vbox" with version "1.15-linux"
00:00:00.221747 nspr-2   Loading settings file "/home/mohseen/VirtualBox VMs/MXLINUX/MXLINUX.vbox" with version "1.16-linux"
00:00:00.228785 nspr-2   OCI: Local config file '/home/mohseen/.config/VirtualBox/oci_config' does not exist
00:00:00.228810 nspr-2   OCI: Original config file '/home/mohseen/.oci/config' does not exist
00:00:00.228813 nspr-2   OCI: Reading profiles finished with status NS_OK
00:00:00.228821 nspr-2   ExtPack: Created cloud provider 'OCI' (hrc=NS_OK)
00:00:00.228844 nspr-2   VirtualBox: object created
00:01:10.693761 createBase Saving settings file "/home/mohseen/.config/VirtualBox/VirtualBox.xml" with version "1.12-linux"
00:01:11.259131 nspr-4   Saving settings file "/home/mohseen/VirtualBox VMs/AROS/AROS.vbox" with version "1.15-linux"
00:01:11.263976 nspr-2   Saving settings file "/home/mohseen/VirtualBox VMs/AROS/AROS.vbox" with version "1.15-linux"
00:01:11.272252 nspr-2   Saving settings file "/home/mohseen/.config/VirtualBox/VirtualBox.xml" with version "1.12-linux"
00:01:11.289670 nspr-5   Saving settings file "/home/mohseen/.config/VirtualBox/VirtualBox.xml" with version "1.12-linux"
00:01:11.294231 nspr-4   Saving settings file "/home/mohseen/VirtualBox VMs/AROS/AROS.vbox" with version "1.15-linux"
00:01:28.149087 nspr-3   NetIfAdpCtlOut: VBoxNetAdpCtl: Error while retrieving link speed for wlan0: VBoxNetAdpCtl: ioctl failed: Operation not supported
00:01:28.186731 nspr-5   NetIfAdpCtlOut: VBoxNetAdpCtl: Error while retrieving link speed for wlan0: VBoxNetAdpCtl: ioctl failed: Operation not supported
00:02:11.192190 nspr-5   Saving settings file "/home/mohseen/VirtualBox VMs/AROS/AROS.vbox" with version "1.15-linux"
00:02:14.808058 nspr-5   Launched VM: 1140864688 pid: 2910 (0xb5e) frontend: GUI/Qt name: AROS
00:02:15.710442 nspr-5   Load [/usr/lib/virtualbox/ExtensionPacks/Oracle_VM_VirtualBox_Extension_Pack/linux.amd64/VBoxHostWebcam.so] vrc=VINF_SUCCESS
00:02:15.935974 nspr-6   ERROR [COM]: aRC=VBOX_E_IPRT_ERROR (0x80bb0005) aIID={85632c68-b5bb-4316-a900-5eb28d3413df} aComponent={SessionMachine} aText={Saved screenshot data is not available (VERR_NOT_SUPPORTED)}, preserve=false aResultDetail=-37
00:02:15.977964 nspr-3   NetIfAdpCtlOut: VBoxNetAdpCtl: Error while retrieving link speed for wlan0: VBoxNetAdpCtl: ioctl failed: Operation not supported
00:02:30.264019 nspr-5   Saving settings file "/home/mohseen/.config/VirtualBox/VirtualBox.xml" with version "1.12-linux"
00:02:30.271120 nspr-2   Saving settings file "/home/mohseen/.config/VirtualBox/VirtualBox.xml" with version "1.12-linux"
00:02:33.581793 nspr-3   Saving settings file "/home/mohseen/.config/VirtualBox/VirtualBox.xml" with version "1.12-linux"
00:02:33.594244 nspr-3   Saving settings file "/home/mohseen/VirtualBox VMs/AROS/AROS.vbox" with version "1.15-linux"
00:10:03.696620 nspr-2   NetIfAdpCtlOut: VBoxNetAdpCtl: Error while retrieving link speed for wlan0: VBoxNetAdpCtl: ioctl failed: Operation not supported
00:10:03.733457 nspr-6   NetIfAdpCtlOut: VBoxNetAdpCtl: Error while retrieving link speed for wlan0: VBoxNetAdpCtl: ioctl failed: Operation not supported
00:11:40.177347 nspr-7   Saving settings file "/home/mohseen/VirtualBox VMs/AROS/AROS.vbox" with version "1.15-linux"
00:11:40.271131 nspr-7   Saving settings file "/home/mohseen/VirtualBox VMs/AROS/AROS.vbox" with version "1.15-linux"
00:11:40.828753 nspr-8   Saving settings file "/home/mohseen/VirtualBox VMs/AROS/AROS.vbox" with version "1.15-linux"
00:11:40.892327 nspr-3   Saving settings file "/home/mohseen/VirtualBox VMs/AROS/AROS.vbox" with version "1.15-linux"
00:11:47.156980 nspr-3   NetIfAdpCtlOut: VBoxNetAdpCtl: Error while retrieving link speed for wlan0: VBoxNetAdpCtl: ioctl failed: Operation not supported
00:11:47.189949 nspr-3   NetIfAdpCtlOut: VBoxNetAdpCtl: Error while retrieving link speed for wlan0: VBoxNetAdpCtl: ioctl failed: Operation not supported
00:11:56.907559 nspr-2   Saving settings file "/home/mohseen/.config/VirtualBox/VirtualBox.xml" with version "1.12-linux"
00:12:33.209632 createBase Saving settings file "/home/mohseen/.config/VirtualBox/VirtualBox.xml" with version "1.12-linux"
00:12:33.757040 nspr-7   Saving settings file "/home/mohseen/VirtualBox VMs/AROS/AROS.vbox" with version "1.15-linux"
00:12:33.767014 nspr-3   Saving settings file "/home/mohseen/VirtualBox VMs/AROS/AROS.vbox" with version "1.15-linux"
00:12:33.772047 nspr-3   Saving settings file "/home/mohseen/.config/VirtualBox/VirtualBox.xml" with version "1.12-linux"
00:12:33.785305 nspr-9   Saving settings file "/home/mohseen/.config/VirtualBox/VirtualBox.xml" with version "1.12-linux"
00:12:33.793782 nspr-2   Saving settings file "/home/mohseen/VirtualBox VMs/AROS/AROS.vbox" with version "1.15-linux"
00:12:36.534297 nspr-5   NetIfAdpCtlOut: VBoxNetAdpCtl: Error while retrieving link speed for wlan0: VBoxNetAdpCtl: ioctl failed: Operation not supported
00:12:36.565705 nspr-5   NetIfAdpCtlOut: VBoxNetAdpCtl: Error while retrieving link speed for wlan0: VBoxNetAdpCtl: ioctl failed: Operation not supported
00:13:38.320178 nspr-2   ERROR [COM]: aRC=VBOX_E_OBJECT_NOT_FOUND (0x80bb0001) aIID={85632c68-b5bb-4316-a900-5eb28d3413df} aComponent={SessionMachine} aText={Could not find a storage controller named 'PIIX3'}, preserve=false aResultDetail=0
00:13:38.322848 nspr-2   ERROR [COM]: aRC=VBOX_E_OBJECT_NOT_FOUND (0x80bb0001) aIID={85632c68-b5bb-4316-a900-5eb28d3413df} aComponent={SessionMachine} aText={No storage device attached to device slot 0 on port 0 of controller 'PIIX3'}, preserve=false aResultDetail=0
00:13:38.436170 nspr-9   Saving settings file "/home/mohseen/VirtualBox VMs/AROS/AROS.vbox" with version "1.15-linux"
00:13:40.401269 nspr-8   Launched VM: 1073765824 pid: 3396 (0xd44) frontend: GUI/Qt name: AROS
00:13:41.297739 nspr-9   Load [/usr/lib/virtualbox/ExtensionPacks/Oracle_VM_VirtualBox_Extension_Pack/linux.amd64/VBoxHostWebcam.so] vrc=VINF_SUCCESS
00:13:41.509418 nspr-5   ERROR [COM]: aRC=VBOX_E_IPRT_ERROR (0x80bb0005) aIID={85632c68-b5bb-4316-a900-5eb28d3413df} aComponent={SessionMachine} aText={Saved screenshot data is not available (VERR_NOT_SUPPORTED)}, preserve=false aResultDetail=-37
00:13:41.541523 nspr-7   NetIfAdpCtlOut: VBoxNetAdpCtl: Error while retrieving link speed for wlan0: VBoxNetAdpCtl: ioctl failed: Operation not supported
00:15:14.655052 nspr-8   Saving settings file "/home/mohseen/VirtualBox VMs/AROS/AROS.vbox" with version "1.15-linux"
00:15:14.733988 nspr-3   Saving settings file "/home/mohseen/VirtualBox VMs/AROS/AROS.vbox" with version "1.15-linux"
00:15:15.297985 nspr-7   Saving settings file "/home/mohseen/VirtualBox VMs/AROS/AROS.vbox" with version "1.15-linux"
00:15:15.356403 nspr-7   Saving settings file "/home/mohseen/VirtualBox VMs/AROS/AROS.vbox" with version "1.15-linux"
00:15:22.567309 nspr-8   Saving settings file "/home/mohseen/.config/VirtualBox/VirtualBox.xml" with version "1.12-linux"
00:15:57.597419 createBase Saving settings file "/home/mohseen/.config/VirtualBox/VirtualBox.xml" with version "1.12-linux"
00:15:58.165504 nspr-8   Saving settings file "/home/mohseen/VirtualBox VMs/aspire/aspire.vbox" with version "1.15-linux"
00:15:58.175747 nspr-9   Saving settings file "/home/mohseen/VirtualBox VMs/aspire/aspire.vbox" with version "1.15-linux"
00:15:58.185120 nspr-9   Saving settings file "/home/mohseen/.config/VirtualBox/VirtualBox.xml" with version "1.12-linux"
00:15:58.203800 nspr-7   Saving settings file "/home/mohseen/.config/VirtualBox/VirtualBox.xml" with version "1.12-linux"
00:15:58.216793 nspr-8   Saving settings file "/home/mohseen/VirtualBox VMs/aspire/aspire.vbox" with version "1.15-linux"
00:16:00.920784 nspr-5   NetIfAdpCtlOut: VBoxNetAdpCtl: Error while retrieving link speed for wlan0: VBoxNetAdpCtl: ioctl failed: Operation not supported
00:16:00.951133 nspr-8   NetIfAdpCtlOut: VBoxNetAdpCtl: Error while retrieving link speed for wlan0: VBoxNetAdpCtl: ioctl failed: Operation not supported
00:16:22.441026 nspr-6   Saving settings file "/home/mohseen/VirtualBox VMs/aspire/aspire.vbox" with version "1.15-linux"
00:16:24.284716 nspr-9   Launched VM: 1610637680 pid: 3549 (0xddd) frontend: GUI/Qt name: aspire
00:16:25.201457 nspr-4   Load [/usr/lib/virtualbox/ExtensionPacks/Oracle_VM_VirtualBox_Extension_Pack/linux.amd64/VBoxHostWebcam.so] vrc=VINF_SUCCESS
00:16:25.416425 nspr-2   ERROR [COM]: aRC=VBOX_E_IPRT_ERROR (0x80bb0005) aIID={85632c68-b5bb-4316-a900-5eb28d3413df} aComponent={SessionMachine} aText={Saved screenshot data is not available (VERR_NOT_SUPPORTED)}, preserve=false aResultDetail=-37
00:16:25.450139 nspr-8   NetIfAdpCtlOut: VBoxNetAdpCtl: Error while retrieving link speed for wlan0: VBoxNetAdpCtl: ioctl failed: Operation not supported
00:16:37.479891 nspr-3   Saving settings file "/home/mohseen/.config/VirtualBox/VirtualBox.xml" with version "1.12-linux"
00:16:40.318604 nspr-9   Saving settings file "/home/mohseen/.config/VirtualBox/VirtualBox.xml" with version "1.12-linux"
00:16:40.330979 nspr-8   Saving settings file "/home/mohseen/VirtualBox VMs/aspire/aspire.vbox" with version "1.15-linux"
00:24:50.425140 nspr-6   Saving settings file "/home/mohseen/.config/VirtualBox/VirtualBox.xml" with version "1.12-linux"
00:24:50.444124 nspr-5   Saving settings file "/home/mohseen/.config/VirtualBox/VirtualBox.xml" with version "1.12-linux"
00:24:50.457066 nspr-7   Saving settings file "/home/mohseen/.config/VirtualBox/VirtualBox.xml" with version "1.12-linux"
00:24:50.505895 nspr-5   Saving settings file "/home/mohseen/.config/VirtualBox/VirtualBox.xml" with version "1.12-linux"
00:24:50.513073 nspr-4   Saving settings file "/home/mohseen/.config/VirtualBox/VirtualBox.xml" with version "1.12-linux"
00:24:50.521530 nspr-7   Saving settings file "/home/mohseen/.config/VirtualBox/VirtualBox.xml" with version "1.12-linux"
00:24:57.153279 nspr-9   Saving settings file "/home/mohseen/VirtualBox VMs/aspire/aspire.vbox" with version "1.15-linux"
00:24:57.246876 nspr-10  Saving settings file "/home/mohseen/VirtualBox VMs/aspire/aspire.vbox" with version "1.15-linux"
00:24:57.819278 nspr-6   Saving settings file "/home/mohseen/VirtualBox VMs/aspire/aspire.vbox" with version "1.15-linux"
00:24:57.864804 nspr-5   Saving settings file "/home/mohseen/VirtualBox VMs/aspire/aspire.vbox" with version "1.15-linux"
00:25:03.391817 main     VirtualBox: object deletion starts
00:25:03.391907 main     ERROR [COM]: aRC=VBOX_E_OBJECT_IN_USE (0x80bb000c) aIID={ad47ad09-787b-44ab-b343-a082a3f2dfb1} aComponent={MediumWrap} aText={Medium '/home/mohseen/VirtualBox VMs/_Windows LTSC/windows-disk001.vdi' cannot be closed because it is still attached to 1 virtual machines}, preserve=false aResultDetail=0
00:25:03.392200 main     ERROR [COM]: aRC=VBOX_E_OBJECT_IN_USE (0x80bb000c) aIID={ad47ad09-787b-44ab-b343-a082a3f2dfb1} aComponent={MediumWrap} aText={Medium '/home/mohseen/VirtualBox VMs/MXLINUX/MXLINUX.vdi' cannot be closed because it is still attached to 1 virtual machines}, preserve=false aResultDetail=0
00:25:03.392422 main     ERROR [COM]: aRC=VBOX_E_OBJECT_IN_USE (0x80bb000c) aIID={ad47ad09-787b-44ab-b343-a082a3f2dfb1} aComponent={MediumWrap} aText={Medium '/home/mohseen/VirtualBox VMs/aspire/aspire.vdi' cannot be closed because it is still attached to 1 virtual machines}, preserve=false aResultDetail=0
00:25:03.393110 main     HostDnsMonitor: shutting down ...
00:25:03.397498 main     HostDnsMonitor: shut down
00:25:03.761181 Watcher  ERROR [COM]: aRC=E_ACCESSDENIED (0x80070005) aIID={d0a0163f-e254-4e5b-a1f2-011cf991c38d} aComponent={VirtualBoxWrap} aText={The object is not ready}, preserve=false aResultDetail=0
00:25:08.411058 main     {00007f536401bdc0} HostPowerServiceLinux::~HostPowerServiceLinux: RTThreadWait() for 5000 ms failed with VERR_TIMEOUT
00:25:08.412390 main     VirtualBox: object deleted
