00:00:00.000759 main     VirtualBox XPCOM Server 6.1.28 r147628 linux.amd64 (Oct 20 2021 21:54:22) release log
00:00:00.000764 main     Log opened 2021-10-23T12:24:06.781921000Z
00:00:00.000766 main     Build Type: release
00:00:00.000770 main     OS Product: Linux
00:00:00.000773 main     OS Release: 5.14.14-arch1-1
00:00:00.000776 main     OS Version: #1 SMP PREEMPT Wed, 20 Oct 2021 21:35:18 +0000
00:00:00.000810 main     DMI Product Name: 20JNS10501
00:00:00.000827 main     DMI Product Version: ThinkPad T470 W10DG
00:00:00.000835 main     Firmware type: UEFI
00:00:00.002095 main     Secure Boot: Disabled
00:00:00.002153 main     Host RAM: 15747MB (15.3GB) total, 15202MB (14.8GB) available
00:00:00.002158 main     Executable: /usr/lib/virtualbox/VBoxSVC
00:00:00.002158 main     Process ID: 192829
00:00:00.002159 main     Package type: LINUX_64BITS_GENERIC (OSE)
00:00:00.005124 main     IPC socket path: /tmp/.vbox-mohseen-ipc/ipcd
00:00:00.113516 nspr-2   VirtualBox: object creation starts
00:00:00.113669 nspr-2   Home directory: '/home/mohseen/.config/VirtualBox'
00:00:00.113946 nspr-2   Loading settings file "/home/mohseen/.config/VirtualBox/VirtualBox.xml" with version "1.12-linux"
00:00:00.117624 nspr-2   USB: Unknown USB device detected (idVendor: 0x138a, idProduct: 0x0097)
00:00:00.117695 nspr-2   USB: Unknown USB device detected (idVendor: 0x8087, idProduct: 0x0a2b)
00:00:00.117932 nspr-2   Successfully initialised host USB using sysfs
00:00:00.144804 nspr-2   NetIfAdpCtlOut: VBoxNetAdpCtl: Error while retrieving link speed for wlan0: VBoxNetAdpCtl: ioctl failed: Operation not supported
00:00:00.164728 nspr-2   HostDnsMonitor: initializing
00:00:00.165221 nspr-2   NAT: resolv.conf: nameserver 192.168.1.1
00:00:00.165232 nspr-2   NAT: resolv.conf: FIXME: ignoring IPv6 zone %wlan0
00:00:00.165235 nspr-2   NAT: resolv.conf: nameserver fe80::4ec5:3eff:fe06:c910
00:00:00.165244 nspr-2   HostDnsMonitor: updating information
00:00:00.165255 nspr-2   HostDnsMonitor: old information
00:00:00.165257 nspr-2     no server entries
00:00:00.165260 nspr-2     no domain set
00:00:00.165262 nspr-2     no search string entries
00:00:00.165264 nspr-2   HostDnsMonitor: new information
00:00:00.165267 nspr-2     server 1: 192.168.1.1
00:00:00.165269 nspr-2     server 2: fe80::4ec5:3eff:fe06:c910%wlan0
00:00:00.165272 nspr-2     domain: home
00:00:00.165274 nspr-2     search string 1: home
00:00:00.168598 nspr-2   VD: VDInit finished with VINF_SUCCESS
00:00:00.171934 nspr-2   Loading settings file "/home/mohseen/VirtualBox VMs/_Windows LTSC/_Windows LTSC.vbox" with version "1.15-linux"
00:00:00.172410 nspr-2   Loading settings file "/home/mohseen/VirtualBox VMs/MXLINUX/MXLINUX.vbox" with version "1.16-linux"
00:00:00.173094 nspr-2   OCI: Local config file '/home/mohseen/.config/VirtualBox/oci_config' does not exist
00:00:00.173108 nspr-2   OCI: Original config file '/home/mohseen/.oci/config' does not exist
00:00:00.173111 nspr-2   OCI: Reading profiles finished with status NS_OK
00:00:00.173119 nspr-2   ExtPack: Created cloud provider 'OCI' (hrc=NS_OK)
00:00:00.173130 nspr-2   VirtualBox: object created
00:01:22.842308 createClone Saving settings file "/home/mohseen/VirtualBox VMs/MXLINUX/MXLINUX.vbox" with version "1.16-linux"
00:01:22.860371 createClone Saving settings file "/home/mohseen/.config/VirtualBox/VirtualBox.xml" with version "1.12-linux"
00:01:22.869664 MachineClone Saving settings file "/home/mohseen/VirtualBox VMs/MXLinux/MXLinux.vbox" with version "1.16-linux"
00:01:22.899314 nspr-4   ERROR [COM]: aRC=VBOX_E_OBJECT_NOT_FOUND (0x80bb0001) aIID={d0a0163f-e254-4e5b-a1f2-011cf991c38d} aComponent={VirtualBoxWrap} aText={Could not find a registered machine with UUID {b6f9dd74-8783-41c9-892f-e18fa55990f1}}, preserve=false aResultDetail=0
00:01:22.908413 nspr-4   ERROR [COM]: aRC=VBOX_E_OBJECT_NOT_FOUND (0x80bb0001) aIID={d0a0163f-e254-4e5b-a1f2-011cf991c38d} aComponent={VirtualBoxWrap} aText={Could not find a registered machine with UUID {b6f9dd74-8783-41c9-892f-e18fa55990f1}}, preserve=false aResultDetail=0
00:01:23.391478 nspr-2   Saving settings file "/home/mohseen/.config/VirtualBox/VirtualBox.xml" with version "1.12-linux"
00:01:42.780287 nspr-4   Saving settings file "/home/mohseen/.config/VirtualBox/VirtualBox.xml" with version "1.12-linux"
00:02:18.762494 ApplWrit Loading settings file "/home/mohseen/VirtualBox VMs/MXLINUX/MXLINUX.vbox" with version "1.16-linux"
00:02:18.763097 ApplWrit Exporting settings file "/home/mohseen/VirtualBox VMs/MXLINUX/MXLINUX.vbox" with version "1.16-linux"
00:36:26.237630 nspr-3   Saving settings file "/home/mohseen/.config/VirtualBox/VirtualBox.xml" with version "1.12-linux"
00:36:26.254587 nspr-4   Saving settings file "/home/mohseen/.config/VirtualBox/VirtualBox.xml" with version "1.12-linux"
00:36:26.276589 nspr-2   Saving settings file "/home/mohseen/.config/VirtualBox/VirtualBox.xml" with version "1.12-linux"
00:36:26.282436 nspr-2   Saving settings file "/home/mohseen/.config/VirtualBox/VirtualBox.xml" with version "1.12-linux"
00:36:31.802646 main     VirtualBox: object deletion starts
00:36:31.802808 main     ERROR [COM]: aRC=VBOX_E_OBJECT_IN_USE (0x80bb000c) aIID={ad47ad09-787b-44ab-b343-a082a3f2dfb1} aComponent={MediumWrap} aText={Medium '/home/mohseen/VirtualBox VMs/_Windows LTSC/windows-disk001.vdi' cannot be closed because it is still attached to 1 virtual machines}, preserve=false aResultDetail=0
00:36:31.803135 main     ERROR [COM]: aRC=VBOX_E_OBJECT_IN_USE (0x80bb000c) aIID={ad47ad09-787b-44ab-b343-a082a3f2dfb1} aComponent={MediumWrap} aText={Medium '/home/mohseen/VirtualBox VMs/MXLINUX/MXLINUX.vdi' cannot be closed because it is still attached to 1 virtual machines}, preserve=false aResultDetail=0
00:36:31.803837 main     HostDnsMonitor: shutting down ...
00:36:31.804194 main     HostDnsMonitor: shut down
00:36:32.014157 Watcher  ERROR [COM]: aRC=E_ACCESSDENIED (0x80070005) aIID={d0a0163f-e254-4e5b-a1f2-011cf991c38d} aComponent={VirtualBoxWrap} aText={The object is not ready}, preserve=false aResultDetail=0
00:36:36.817052 main     {00007f4be001bd90} HostPowerServiceLinux::~HostPowerServiceLinux: RTThreadWait() for 5000 ms failed with VERR_TIMEOUT
00:36:36.817986 main     VirtualBox: object deleted
