00:00:00.000996 main     VirtualBox XPCOM Server 6.1.28 r147628 linux.amd64 (Oct 20 2021 21:54:22) release log
00:00:00.001003 main     Log opened 2021-10-23T07:50:43.255776000Z
00:00:00.001005 main     Build Type: release
00:00:00.001011 main     OS Product: Linux
00:00:00.001015 main     OS Release: 5.14.14-arch1-1
00:00:00.001019 main     OS Version: #1 SMP PREEMPT Wed, 20 Oct 2021 21:35:18 +0000
00:00:00.001061 main     DMI Product Name: 20JNS10501
00:00:00.001085 main     DMI Product Version: ThinkPad T470 W10DG
00:00:00.001096 main     Firmware type: UEFI
00:00:00.002339 main     Secure Boot: Disabled
00:00:00.002437 main     Host RAM: 15747MB (15.3GB) total, 15231MB (14.8GB) available
00:00:00.002447 main     Executable: /usr/lib/virtualbox/VBoxSVC
00:00:00.002449 main     Process ID: 37813
00:00:00.002450 main     Package type: LINUX_64BITS_GENERIC (OSE)
00:00:00.007171 main     IPC socket path: /tmp/.vbox-mohseen-ipc/ipcd
00:00:00.124512 nspr-2   VirtualBox: object creation starts
00:00:00.124676 nspr-2   Home directory: '/home/mohseen/.config/VirtualBox'
00:00:00.124969 nspr-2   Loading settings file "/home/mohseen/.config/VirtualBox/VirtualBox.xml" with version "1.12-linux"
00:00:00.128692 nspr-2   USB: Unknown USB device detected (idVendor: 0x138a, idProduct: 0x0097)
00:00:00.128771 nspr-2   USB: Unknown USB device detected (idVendor: 0x8087, idProduct: 0x0a2b)
00:00:00.128936 nspr-2   Successfully initialised host USB using sysfs
00:00:00.156246 nspr-2   NetIfAdpCtlOut: VBoxNetAdpCtl: Error while retrieving link speed for wlan0: VBoxNetAdpCtl: ioctl failed: Operation not supported
00:00:00.183419 nspr-2   HostDnsMonitor: initializing
00:00:00.184044 nspr-2   NAT: resolv.conf: nameserver 192.168.1.1
00:00:00.184068 nspr-2   NAT: resolv.conf: FIXME: ignoring IPv6 zone %wlan0
00:00:00.184075 nspr-2   NAT: resolv.conf: nameserver fe80::4ec5:3eff:fe06:c910
00:00:00.184095 nspr-2   HostDnsMonitor: updating information
00:00:00.184120 nspr-2   HostDnsMonitor: old information
00:00:00.184126 nspr-2     no server entries
00:00:00.184132 nspr-2     no domain set
00:00:00.184137 nspr-2     no search string entries
00:00:00.184143 nspr-2   HostDnsMonitor: new information
00:00:00.184148 nspr-2     server 1: 192.168.1.1
00:00:00.184155 nspr-2     server 2: fe80::4ec5:3eff:fe06:c910%wlan0
00:00:00.184160 nspr-2     domain: home
00:00:00.184166 nspr-2     search string 1: home
00:00:00.191059 nspr-2   VD: VDInit finished with VINF_SUCCESS
00:00:00.198961 nspr-2   Loading settings file "/home/mohseen/VirtualBox VMs/_Windows LTSC/_Windows LTSC.vbox" with version "1.15-linux"
00:00:00.200018 nspr-2   Loading settings file "/home/mohseen/VirtualBox VMs/MXLINUX/MXLINUX.vbox" with version "1.16-linux"
00:00:00.201872 nspr-2   OCI: Local config file '/home/mohseen/.config/VirtualBox/oci_config' does not exist
00:00:00.201917 nspr-2   OCI: Original config file '/home/mohseen/.oci/config' does not exist
00:00:00.201926 nspr-2   OCI: Reading profiles finished with status NS_OK
00:00:00.201937 nspr-2   ExtPack: Created cloud provider 'OCI' (hrc=NS_OK)
00:00:00.201960 nspr-2   VirtualBox: object created
00:00:06.448108 nspr-3   NetIfAdpCtlOut: VBoxNetAdpCtl: Error while retrieving link speed for wlan0: VBoxNetAdpCtl: ioctl failed: Operation not supported
00:00:06.490924 nspr-3   NetIfAdpCtlOut: VBoxNetAdpCtl: Error while retrieving link speed for wlan0: VBoxNetAdpCtl: ioctl failed: Operation not supported
00:00:25.888262 nspr-2   Saving settings file "/home/mohseen/VirtualBox VMs/MXLINUX/MXLINUX.vbox" with version "1.16-linux"
00:00:29.083084 nspr-3   NetIfAdpCtlOut: VBoxNetAdpCtl: Error while retrieving link speed for wlan0: VBoxNetAdpCtl: ioctl failed: Operation not supported
00:00:29.135308 nspr-3   NetIfAdpCtlOut: VBoxNetAdpCtl: Error while retrieving link speed for wlan0: VBoxNetAdpCtl: ioctl failed: Operation not supported
00:00:42.023236 nspr-3   Saving settings file "/home/mohseen/VirtualBox VMs/MXLINUX/MXLINUX.vbox" with version "1.16-linux"
00:00:44.096894 nspr-3   Launched VM: 939530736 pid: 38304 (0x95a0) frontend: GUI/Qt name: MXLINUX
00:00:45.485600 nspr-6   Load [/usr/lib/virtualbox/ExtensionPacks/Oracle_VM_VirtualBox_Extension_Pack/linux.amd64/VBoxHostWebcam.so] vrc=VINF_SUCCESS
00:00:45.782101 nspr-2   ERROR [COM]: aRC=VBOX_E_IPRT_ERROR (0x80bb0005) aIID={85632c68-b5bb-4316-a900-5eb28d3413df} aComponent={SessionMachine} aText={Saved screenshot data is not available (VERR_NOT_SUPPORTED)}, preserve=false aResultDetail=-37
00:00:45.830008 nspr-2   NetIfAdpCtlOut: VBoxNetAdpCtl: Error while retrieving link speed for wlan0: VBoxNetAdpCtl: ioctl failed: Operation not supported
00:00:54.101923 nspr-7   Saving settings file "/home/mohseen/.config/VirtualBox/VirtualBox.xml" with version "1.12-linux"
00:00:54.113373 nspr-9   Saving settings file "/home/mohseen/.config/VirtualBox/VirtualBox.xml" with version "1.12-linux"
00:00:56.515243 nspr-2   Saving settings file "/home/mohseen/VirtualBox VMs/MXLINUX/MXLINUX.vbox" with version "1.16-linux"
00:01:57.056948 nspr-8   Saving settings file "/home/mohseen/VirtualBox VMs/MXLINUX/MXLINUX.vbox" with version "1.16-linux"
00:02:04.362841 nspr-9   Saving settings file "/home/mohseen/VirtualBox VMs/MXLINUX/MXLINUX.vbox" with version "1.16-linux"
00:02:22.257767 nspr-7   Saving settings file "/home/mohseen/VirtualBox VMs/MXLINUX/MXLINUX.vbox" with version "1.16-linux"
00:02:32.438683 nspr-2   Saving settings file "/home/mohseen/VirtualBox VMs/MXLINUX/MXLINUX.vbox" with version "1.16-linux"
00:03:04.009151 nspr-8   Saving settings file "/home/mohseen/VirtualBox VMs/MXLINUX/MXLINUX.vbox" with version "1.16-linux"
00:03:28.562168 nspr-9   Saving settings file "/home/mohseen/VirtualBox VMs/MXLINUX/MXLINUX.vbox" with version "1.16-linux"
00:03:50.393390 nspr-4   Saving settings file "/home/mohseen/VirtualBox VMs/MXLINUX/MXLINUX.vbox" with version "1.16-linux"
00:04:13.322106 nspr-3   Saving settings file "/home/mohseen/VirtualBox VMs/MXLINUX/MXLINUX.vbox" with version "1.16-linux"
00:04:36.554226 nspr-2   Saving settings file "/home/mohseen/VirtualBox VMs/MXLINUX/MXLINUX.vbox" with version "1.16-linux"
00:04:45.842704 nspr-9   Saving settings file "/home/mohseen/VirtualBox VMs/MXLINUX/MXLINUX.vbox" with version "1.16-linux"
00:17:26.276769 nspr-9   Saving settings file "/home/mohseen/VirtualBox VMs/MXLINUX/MXLINUX.vbox" with version "1.16-linux"
00:17:26.512341 nspr-3   Saving settings file "/home/mohseen/VirtualBox VMs/MXLINUX/MXLINUX.vbox" with version "1.16-linux"
00:26:49.230719 nspr-3   Saving settings file "/home/mohseen/VirtualBox VMs/MXLINUX/MXLINUX.vbox" with version "1.16-linux"
00:26:49.753673 nspr-7   Saving settings file "/home/mohseen/VirtualBox VMs/MXLINUX/MXLINUX.vbox" with version "1.16-linux"
00:26:50.275349 nspr-2   Saving settings file "/home/mohseen/VirtualBox VMs/MXLINUX/MXLINUX.vbox" with version "1.16-linux"
00:26:50.664917 nspr-3   Saving settings file "/home/mohseen/VirtualBox VMs/MXLINUX/MXLINUX.vbox" with version "1.16-linux"
00:27:22.944789 nspr-7   Saving settings file "/home/mohseen/VirtualBox VMs/MXLINUX/MXLINUX.vbox" with version "1.16-linux"
00:27:43.755490 nspr-7   ERROR [COM]: aRC=VBOX_E_IPRT_ERROR (0x80bb0005) aIID={85632c68-b5bb-4316-a900-5eb28d3413df} aComponent={SessionMachine} aText={Saved screenshot data is not available (VERR_NOT_SUPPORTED)}, preserve=false aResultDetail=-37
04:33:12.945543 nspr-3   Saving settings file "/home/mohseen/VirtualBox VMs/MXLINUX/MXLINUX.vbox" with version "1.16-linux"
04:33:12.960022 nspr-3   Saving settings file "/home/mohseen/VirtualBox VMs/MXLINUX/MXLINUX.vbox" with version "1.16-linux"
04:33:18.485146 main     VirtualBox: object deletion starts
04:33:18.485217 main     ERROR [COM]: aRC=VBOX_E_OBJECT_IN_USE (0x80bb000c) aIID={ad47ad09-787b-44ab-b343-a082a3f2dfb1} aComponent={MediumWrap} aText={Medium '/home/mohseen/VirtualBox VMs/_Windows LTSC/windows-disk001.vdi' cannot be closed because it is still attached to 1 virtual machines}, preserve=false aResultDetail=0
04:33:18.485458 main     ERROR [COM]: aRC=VBOX_E_OBJECT_IN_USE (0x80bb000c) aIID={ad47ad09-787b-44ab-b343-a082a3f2dfb1} aComponent={MediumWrap} aText={Medium '/home/mohseen/VirtualBox VMs/MXLINUX/MXLINUX.vdi' cannot be closed because it is still attached to 1 virtual machines}, preserve=false aResultDetail=0
04:33:18.486131 main     HostDnsMonitor: shutting down ...
04:33:18.486482 main     HostDnsMonitor: shut down
04:33:18.962192 Watcher  ERROR [COM]: aRC=E_ACCESSDENIED (0x80070005) aIID={d0a0163f-e254-4e5b-a1f2-011cf991c38d} aComponent={VirtualBoxWrap} aText={The object is not ready}, preserve=false aResultDetail=0
04:33:23.493700 main     {00007fe43c01bd90} HostPowerServiceLinux::~HostPowerServiceLinux: RTThreadWait() for 5000 ms failed with VERR_TIMEOUT
04:33:23.494628 main     VirtualBox: object deleted
