00:00:00.005493 main     VirtualBox XPCOM Server 6.1.28 r147628 linux.amd64 (Oct 20 2021 21:54:22) release log
00:00:00.005495 main     Log opened 2021-10-30T10:03:44.965643000Z
00:00:00.005496 main     Build Type: release
00:00:00.005498 main     OS Product: Linux
00:00:00.005499 main     OS Release: 5.14.14-arch1-1
00:00:00.005500 main     OS Version: #1 SMP PREEMPT Wed, 20 Oct 2021 21:35:18 +0000
00:00:00.005518 main     DMI Product Name: 20JNS10501
00:00:00.005524 main     DMI Product Version: ThinkPad T470 W10DG
00:00:00.005528 main     Firmware type: UEFI
00:00:00.006373 main     Secure Boot: Disabled
00:00:00.006414 main     Host RAM: 15747MB (15.3GB) total, 14378MB (14.0GB) available
00:00:00.006417 main     Executable: /usr/lib/virtualbox/VBoxSVC
00:00:00.006417 main     Process ID: 3902
00:00:00.006418 main     Package type: LINUX_64BITS_GENERIC (OSE)
00:00:00.008024 main     IPC socket path: /tmp/.vbox-mohseen-ipc/ipcd
00:00:00.113748 nspr-2   VirtualBox: object creation starts
00:00:00.113885 nspr-2   Home directory: '/home/mohseen/.config/VirtualBox'
00:00:00.114106 nspr-2   Loading settings file "/home/mohseen/.config/VirtualBox/VirtualBox.xml" with version "1.12-linux"
00:00:00.118365 nspr-2   USB: Unknown USB device detected (idVendor: 0x138a, idProduct: 0x0097)
00:00:00.118507 nspr-2   USB: Unknown USB device detected (idVendor: 0x8087, idProduct: 0x0a2b)
00:00:00.118804 nspr-2   Successfully initialised host USB using sysfs
00:00:00.149891 nspr-2   NetIfAdpCtlOut: VBoxNetAdpCtl: Error while retrieving link speed for wlan0: VBoxNetAdpCtl: ioctl failed: Operation not supported
00:00:00.169860 nspr-2   HostDnsMonitor: initializing
00:00:00.170410 nspr-2   NAT: resolv.conf: nameserver 192.168.1.1
00:00:00.170445 nspr-2   NAT: resolv.conf: FIXME: ignoring IPv6 zone %wlan0
00:00:00.170451 nspr-2   NAT: resolv.conf: nameserver fe80::4ec5:3eff:fe06:c910
00:00:00.170467 nspr-2   HostDnsMonitor: updating information
00:00:00.170500 nspr-2   HostDnsMonitor: old information
00:00:00.170508 nspr-2     no server entries
00:00:00.170515 nspr-2     no domain set
00:00:00.170519 nspr-2     no search string entries
00:00:00.170522 nspr-2   HostDnsMonitor: new information
00:00:00.170526 nspr-2     server 1: 192.168.1.1
00:00:00.170531 nspr-2     server 2: fe80::4ec5:3eff:fe06:c910%wlan0
00:00:00.170536 nspr-2     domain: home
00:00:00.170541 nspr-2     search string 1: home
00:00:00.175030 nspr-2   VD: VDInit finished with VINF_SUCCESS
00:00:00.179290 nspr-2   Loading settings file "/home/mohseen/VirtualBox VMs/_Windows LTSC/_Windows LTSC.vbox" with version "1.15-linux"
00:00:00.179925 nspr-2   Loading settings file "/home/mohseen/VirtualBox VMs/MXLINUX/MXLINUX.vbox" with version "1.16-linux"
00:00:00.180465 nspr-2   Loading settings file "/home/mohseen/VirtualBox VMs/aspire/aspire.vbox" with version "1.15-linux"
00:00:00.181220 nspr-2   OCI: Local config file '/home/mohseen/.config/VirtualBox/oci_config' does not exist
00:00:00.181236 nspr-2   OCI: Original config file '/home/mohseen/.oci/config' does not exist
00:00:00.181239 nspr-2   OCI: Reading profiles finished with status NS_OK
00:00:00.181244 nspr-2   ExtPack: Created cloud provider 'OCI' (hrc=NS_OK)
00:00:00.181257 nspr-2   VirtualBox: object created
00:00:09.104536 nspr-2   Saving settings file "/home/mohseen/.config/VirtualBox/VirtualBox.xml" with version "1.12-linux"
00:00:13.024277 nspr-3   NetIfAdpCtlOut: VBoxNetAdpCtl: Error while retrieving link speed for wlan0: VBoxNetAdpCtl: ioctl failed: Operation not supported
00:00:13.058375 nspr-2   NetIfAdpCtlOut: VBoxNetAdpCtl: Error while retrieving link speed for wlan0: VBoxNetAdpCtl: ioctl failed: Operation not supported
00:00:22.955173 nspr-2   Saving settings file "/home/mohseen/VirtualBox VMs/aspire/aspire.vbox" with version "1.15-linux"
00:00:24.783870 nspr-2   Launched VM: 537222432 pid: 3977 (0xf89) frontend: GUI/Qt name: aspire
00:00:25.715108 nspr-3   Load [/usr/lib/virtualbox/ExtensionPacks/Oracle_VM_VirtualBox_Extension_Pack/linux.amd64/VBoxHostWebcam.so] vrc=VINF_SUCCESS
00:00:25.947092 nspr-3   ERROR [COM]: aRC=VBOX_E_IPRT_ERROR (0x80bb0005) aIID={85632c68-b5bb-4316-a900-5eb28d3413df} aComponent={SessionMachine} aText={Saved screenshot data is not available (VERR_NOT_SUPPORTED)}, preserve=false aResultDetail=-37
00:00:25.979930 nspr-3   NetIfAdpCtlOut: VBoxNetAdpCtl: Error while retrieving link speed for wlan0: VBoxNetAdpCtl: ioctl failed: Operation not supported
00:01:49.910597 nspr-7   Saving settings file "/home/mohseen/VirtualBox VMs/aspire/aspire.vbox" with version "1.15-linux"
00:01:50.475329 nspr-7   Saving settings file "/home/mohseen/VirtualBox VMs/aspire/aspire.vbox" with version "1.15-linux"
00:01:56.452720 nspr-8   Saving settings file "/home/mohseen/.config/VirtualBox/VirtualBox.xml" with version "1.12-linux"
00:02:27.786672 createBase Saving settings file "/home/mohseen/.config/VirtualBox/VirtualBox.xml" with version "1.12-linux"
00:02:28.354261 nspr-3   Saving settings file "/home/mohseen/VirtualBox VMs/aros/aros.vbox" with version "1.15-linux"
00:02:28.392160 nspr-4   Saving settings file "/home/mohseen/VirtualBox VMs/aros/aros.vbox" with version "1.15-linux"
00:02:28.397384 nspr-4   Saving settings file "/home/mohseen/.config/VirtualBox/VirtualBox.xml" with version "1.12-linux"
00:02:28.408014 nspr-6   Saving settings file "/home/mohseen/.config/VirtualBox/VirtualBox.xml" with version "1.12-linux"
00:02:28.413283 nspr-2   Saving settings file "/home/mohseen/VirtualBox VMs/aros/aros.vbox" with version "1.15-linux"
00:02:31.065302 nspr-8   NetIfAdpCtlOut: VBoxNetAdpCtl: Error while retrieving link speed for wlan0: VBoxNetAdpCtl: ioctl failed: Operation not supported
00:02:31.099016 nspr-4   NetIfAdpCtlOut: VBoxNetAdpCtl: Error while retrieving link speed for wlan0: VBoxNetAdpCtl: ioctl failed: Operation not supported
00:02:48.254261 nspr-6   Saving settings file "/home/mohseen/VirtualBox VMs/aros/aros.vbox" with version "1.15-linux"
00:02:50.022359 nspr-4   Launched VM: 469770608 pid: 4122 (0x101a) frontend: GUI/Qt name: aros
00:02:50.936435 nspr-7   Load [/usr/lib/virtualbox/ExtensionPacks/Oracle_VM_VirtualBox_Extension_Pack/linux.amd64/VBoxHostWebcam.so] vrc=VINF_SUCCESS
00:02:51.153056 nspr-7   ERROR [COM]: aRC=VBOX_E_IPRT_ERROR (0x80bb0005) aIID={85632c68-b5bb-4316-a900-5eb28d3413df} aComponent={SessionMachine} aText={Saved screenshot data is not available (VERR_NOT_SUPPORTED)}, preserve=false aResultDetail=-37
00:02:51.186675 nspr-8   NetIfAdpCtlOut: VBoxNetAdpCtl: Error while retrieving link speed for wlan0: VBoxNetAdpCtl: ioctl failed: Operation not supported
00:03:06.610200 nspr-6   Saving settings file "/home/mohseen/.config/VirtualBox/VirtualBox.xml" with version "1.12-linux"
00:03:09.704239 nspr-2   Saving settings file "/home/mohseen/.config/VirtualBox/VirtualBox.xml" with version "1.12-linux"
00:03:09.716253 nspr-7   Saving settings file "/home/mohseen/VirtualBox VMs/aros/aros.vbox" with version "1.15-linux"
00:08:39.490442 nspr-4   Saving settings file "/home/mohseen/VirtualBox VMs/aros/aros.vbox" with version "1.15-linux"
00:08:39.604158 nspr-7   Saving settings file "/home/mohseen/VirtualBox VMs/aros/aros.vbox" with version "1.15-linux"
00:08:40.163363 nspr-3   Saving settings file "/home/mohseen/VirtualBox VMs/aros/aros.vbox" with version "1.15-linux"
00:08:40.225488 nspr-8   Saving settings file "/home/mohseen/VirtualBox VMs/aros/aros.vbox" with version "1.15-linux"
00:08:43.497375 nspr-5   NetIfAdpCtlOut: VBoxNetAdpCtl: Error while retrieving link speed for wlan0: VBoxNetAdpCtl: ioctl failed: Operation not supported
00:08:43.529224 nspr-3   NetIfAdpCtlOut: VBoxNetAdpCtl: Error while retrieving link speed for wlan0: VBoxNetAdpCtl: ioctl failed: Operation not supported
00:08:52.497959 nspr-5   Saving settings file "/home/mohseen/VirtualBox VMs/aros/aros.vbox" with version "1.15-linux"
00:08:55.448277 nspr-8   Launched VM: 469772672 pid: 4386 (0x1122) frontend: GUI/Qt name: aros
00:08:56.335870 nspr-5   Load [/usr/lib/virtualbox/ExtensionPacks/Oracle_VM_VirtualBox_Extension_Pack/linux.amd64/VBoxHostWebcam.so] vrc=VINF_SUCCESS
00:08:56.545099 nspr-2   ERROR [COM]: aRC=VBOX_E_IPRT_ERROR (0x80bb0005) aIID={85632c68-b5bb-4316-a900-5eb28d3413df} aComponent={SessionMachine} aText={Saved screenshot data is not available (VERR_NOT_SUPPORTED)}, preserve=false aResultDetail=-37
00:08:56.580931 nspr-4   NetIfAdpCtlOut: VBoxNetAdpCtl: Error while retrieving link speed for wlan0: VBoxNetAdpCtl: ioctl failed: Operation not supported
00:29:56.558448 dns-monitor NAT: resolv.conf: nameserver 192.168.1.1
00:29:56.558534 dns-monitor NAT: resolv.conf: FIXME: ignoring IPv6 zone %wlan0
00:29:56.558549 dns-monitor NAT: resolv.conf: nameserver fe80::4ec5:3eff:fe06:c910
00:29:56.558603 dns-monitor HostDnsMonitor: updating information
00:29:56.558618 dns-monitor HostDnsMonitor: unchanged
00:49:23.365901 nspr-8   Saving settings file "/home/mohseen/.config/VirtualBox/VirtualBox.xml" with version "1.12-linux"
00:49:23.409042 nspr-2   Saving settings file "/home/mohseen/.config/VirtualBox/VirtualBox.xml" with version "1.12-linux"
00:49:23.421806 nspr-2   Saving settings file "/home/mohseen/.config/VirtualBox/VirtualBox.xml" with version "1.12-linux"
00:49:23.430428 nspr-7   Saving settings file "/home/mohseen/.config/VirtualBox/VirtualBox.xml" with version "1.12-linux"
00:49:24.178246 nspr-6   Saving settings file "/home/mohseen/VirtualBox VMs/aros/aros.vbox" with version "1.15-linux"
00:49:24.195516 SaveState Saving settings file "/home/mohseen/VirtualBox VMs/aros/aros.vbox" with version "1.15-linux"
00:49:30.472708 main     VirtualBox: object deletion starts
00:49:30.472800 main     ERROR [COM]: aRC=VBOX_E_OBJECT_IN_USE (0x80bb000c) aIID={ad47ad09-787b-44ab-b343-a082a3f2dfb1} aComponent={MediumWrap} aText={Medium '/home/mohseen/VirtualBox VMs/_Windows LTSC/windows-disk001.vdi' cannot be closed because it is still attached to 1 virtual machines}, preserve=false aResultDetail=0
00:49:30.473087 main     ERROR [COM]: aRC=VBOX_E_OBJECT_IN_USE (0x80bb000c) aIID={ad47ad09-787b-44ab-b343-a082a3f2dfb1} aComponent={MediumWrap} aText={Medium '/home/mohseen/VirtualBox VMs/aros/aros.vdi' cannot be closed because it is still attached to 1 virtual machines}, preserve=false aResultDetail=0
00:49:30.473772 main     HostDnsMonitor: shutting down ...
00:49:30.482739 main     HostDnsMonitor: shut down
00:49:30.692187 Watcher  ERROR [COM]: aRC=E_ACCESSDENIED (0x80070005) aIID={d0a0163f-e254-4e5b-a1f2-011cf991c38d} aComponent={VirtualBoxWrap} aText={The object is not ready}, preserve=false aResultDetail=0
00:49:35.493493 main     {00007fbe2001bcf0} HostPowerServiceLinux::~HostPowerServiceLinux: RTThreadWait() for 5000 ms failed with VERR_TIMEOUT
00:49:35.494848 main     VirtualBox: object deleted
